%YAML 1.1
%TAG !u! tag:unity3d.com,2011:
--- !u!74 &7400000
AnimationClip:
  m_ObjectHideFlags: 0
  m_CorrespondingSourceObject: {fileID: 0}
  m_PrefabInstance: {fileID: 0}
  m_PrefabAsset: {fileID: 0}
  m_Name: Idle_N
  serializedVersion: 6
  m_Legacy: 0
  m_Compressed: 0
  m_UseHighQualityCurve: 1
  m_RotationCurves: []
  m_CompressedRotationCurves: []
  m_EulerCurves: []
  m_PositionCurves: []
  m_ScaleCurves: []
  m_FloatCurves: []
  m_PPtrCurves:
  - curve:
    - time: 0
      value: {fileID: 21300000, guid: 41b55ef89d0f3544a91ef5394ea0061a, type: 3}
    - time: 0.083333336
      value: {fileID: 21300000, guid: ddeb2b9bbf8074c438cd52c136acfd30, type: 3}
    - time: 0.16666667
      value: {fileID: 21300000, guid: bb21ad72d9333264387f87f898912939, type: 3}
    - time: 0.25
      value: {fileID: 21300000, guid: 9a533d3f7b8a94349b2bb4aec5c3d9e3, type: 3}
    - time: 0.33333334
      value: {fileID: 21300000, guid: 659a32ac1b09c3a4baf401c4cc916963, type: 3}
    - time: 0.41666666
      value: {fileID: 21300000, guid: 3dacb2582fd4aad42b56b5ffd661dd26, type: 3}
    - time: 0.5
      value: {fileID: 21300000, guid: 33807973495fd5e4b928ce977f234a80, type: 3}
    - time: 0.5833333
      value: {fileID: 21300000, guid: c4a5cb8649155b64f8f46112ed85392c, type: 3}
    - time: 0.6666667
      value: {fileID: 21300000, guid: 178a1f9134a65464e99094682b3f29bc, type: 3}
    - time: 0.75
      value: {fileID: 21300000, guid: 3c3a0b1c128ca464f98a490c665b30f0, type: 3}
    - time: 0.8333333
      value: {fileID: 21300000, guid: 297d5ce029e6ef544be59f1a943a48bc, type: 3}
    - time: 0.9166667
      value: {fileID: 21300000, guid: 47690653004440e4b8f6417d0c9f6ba5, type: 3}
    - time: 1
      value: {fileID: 21300000, guid: 56c4c54c2aaac8448a098a535621c6c5, type: 3}
    - time: 1.0833334
      value: {fileID: 21300000, guid: a8809fd5075621545ab10a5d210138d2, type: 3}
    - time: 1.1666666
      value: {fileID: 21300000, guid: d032137cb6a1a654490babf5258cc50f, type: 3}
    attribute: m_Sprite
    path: 
    classID: 212
    script: {fileID: 0}
  m_SampleRate: 12
  m_WrapMode: 0
  m_Bounds:
    m_Center: {x: 0, y: 0, z: 0}
    m_Extent: {x: 0, y: 0, z: 0}
  m_ClipBindingConstant:
    genericBindings:
    - serializedVersion: 2
      path: 0
      attribute: 0
      script: {fileID: 0}
      typeID: 212
      customType: 23
      isPPtrCurve: 1
    pptrCurveMapping:
    - {fileID: 21300000, guid: 41b55ef89d0f3544a91ef5394ea0061a, type: 3}
    - {fileID: 21300000, guid: ddeb2b9bbf8074c438cd52c136acfd30, type: 3}
    - {fileID: 21300000, guid: bb21ad72d9333264387f87f898912939, type: 3}
    - {fileID: 21300000, guid: 9a533d3f7b8a94349b2bb4aec5c3d9e3, type: 3}
    - {fileID: 21300000, guid: 659a32ac1b09c3a4baf401c4cc916963, type: 3}
    - {fileID: 21300000, guid: 3dacb2582fd4aad42b56b5ffd661dd26, type: 3}
    - {fileID: 21300000, guid: 33807973495fd5e4b928ce977f234a80, type: 3}
    - {fileID: 21300000, guid: c4a5cb8649155b64f8f46112ed85392c, type: 3}
    - {fileID: 21300000, guid: 178a1f9134a65464e99094682b3f29bc, type: 3}
    - {fileID: 21300000, guid: 3c3a0b1c128ca464f98a490c665b30f0, type: 3}
    - {fileID: 21300000, guid: 297d5ce029e6ef544be59f1a943a48bc, type: 3}
    - {fileID: 21300000, guid: 47690653004440e4b8f6417d0c9f6ba5, type: 3}
    - {fileID: 21300000, guid: 56c4c54c2aaac8448a098a535621c6c5, type: 3}
    - {fileID: 21300000, guid: a8809fd5075621545ab10a5d210138d2, type: 3}
    - {fileID: 21300000, guid: d032137cb6a1a654490babf5258cc50f, type: 3}
  m_AnimationClipSettings:
    serializedVersion: 2
    m_AdditiveReferencePoseClip: {fileID: 0}
    m_AdditiveReferencePoseTime: 0
    m_StartTime: 0
    m_StopTime: 1.25
    m_OrientationOffsetY: 0
    m_Level: 0
    m_CycleOffset: 0
    m_HasAdditiveReferencePose: 0
    m_LoopTime: 1
    m_LoopBlend: 0
    m_LoopBlendOrientation: 0
    m_LoopBlendPositionY: 0
    m_LoopBlendPositionXZ: 0
    m_KeepOriginalOrientation: 0
    m_KeepOriginalPositionY: 1
    m_KeepOriginalPositionXZ: 0
    m_HeightFromFeet: 0
    m_Mirror: 0
  m_EditorCurves: []
  m_EulerEditorCurves: []
  m_HasGenericRootTransform: 0
  m_HasMotionFloatCurves: 0
  m_Events: []
