%YAML 1.1
%TAG !u! tag:unity3d.com,2011:
--- !u!74 &7400000
AnimationClip:
  m_ObjectHideFlags: 0
  m_CorrespondingSourceObject: {fileID: 0}
  m_PrefabInstance: {fileID: 0}
  m_PrefabAsset: {fileID: 0}
  m_Name: Idle_NE
  serializedVersion: 6
  m_Legacy: 0
  m_Compressed: 0
  m_UseHighQualityCurve: 1
  m_RotationCurves: []
  m_CompressedRotationCurves: []
  m_EulerCurves: []
  m_PositionCurves: []
  m_ScaleCurves: []
  m_FloatCurves: []
  m_PPtrCurves:
  - curve:
    - time: 0
      value: {fileID: 21300000, guid: 6f8c641af5561de47b7eae5bb2f2be40, type: 3}
    - time: 0.083333336
      value: {fileID: 21300000, guid: 2454ac17bfff1fc4b93a5c9a0de87240, type: 3}
    - time: 0.16666667
      value: {fileID: 21300000, guid: 3a4fb571fdd5b1d4b936377b399a5ac7, type: 3}
    - time: 0.25
      value: {fileID: 21300000, guid: 9276369aa9aded44796ec26ccb170f63, type: 3}
    - time: 0.33333334
      value: {fileID: 21300000, guid: 78dada95a1200614da419d704cca73d1, type: 3}
    - time: 0.41666666
      value: {fileID: 21300000, guid: d8e6b82fd2ca6e34da0d872f9c45920b, type: 3}
    - time: 0.5
      value: {fileID: 21300000, guid: 54c990f05fa89c04489e073eced85c4c, type: 3}
    - time: 0.5833333
      value: {fileID: 21300000, guid: f7f3be4431eb2f1479f132b9e3f35f5c, type: 3}
    - time: 0.6666667
      value: {fileID: 21300000, guid: adaeeb79d2dfc074cbf325f3e303e78e, type: 3}
    - time: 0.75
      value: {fileID: 21300000, guid: d7f564e9671abf048961db3e189312d8, type: 3}
    - time: 0.8333333
      value: {fileID: 21300000, guid: 8513a4c37b3952e4ba1ade5b01c580c3, type: 3}
    - time: 0.9166667
      value: {fileID: 21300000, guid: 5264fa1fc611bc948858de46caa40983, type: 3}
    - time: 1
      value: {fileID: 21300000, guid: 8282906b8f59fa748a257971c5e567c2, type: 3}
    - time: 1.0833334
      value: {fileID: 21300000, guid: d93c7f8330c02a340a87b4a02bad2c7a, type: 3}
    - time: 1.1666666
      value: {fileID: 21300000, guid: 5ad8561380050974e93310e3ca6b1373, type: 3}
    attribute: m_Sprite
    path: 
    classID: 212
    script: {fileID: 0}
  m_SampleRate: 12
  m_WrapMode: 0
  m_Bounds:
    m_Center: {x: 0, y: 0, z: 0}
    m_Extent: {x: 0, y: 0, z: 0}
  m_ClipBindingConstant:
    genericBindings:
    - serializedVersion: 2
      path: 0
      attribute: 0
      script: {fileID: 0}
      typeID: 212
      customType: 23
      isPPtrCurve: 1
    pptrCurveMapping:
    - {fileID: 21300000, guid: 6f8c641af5561de47b7eae5bb2f2be40, type: 3}
    - {fileID: 21300000, guid: 2454ac17bfff1fc4b93a5c9a0de87240, type: 3}
    - {fileID: 21300000, guid: 3a4fb571fdd5b1d4b936377b399a5ac7, type: 3}
    - {fileID: 21300000, guid: 9276369aa9aded44796ec26ccb170f63, type: 3}
    - {fileID: 21300000, guid: 78dada95a1200614da419d704cca73d1, type: 3}
    - {fileID: 21300000, guid: d8e6b82fd2ca6e34da0d872f9c45920b, type: 3}
    - {fileID: 21300000, guid: 54c990f05fa89c04489e073eced85c4c, type: 3}
    - {fileID: 21300000, guid: f7f3be4431eb2f1479f132b9e3f35f5c, type: 3}
    - {fileID: 21300000, guid: adaeeb79d2dfc074cbf325f3e303e78e, type: 3}
    - {fileID: 21300000, guid: d7f564e9671abf048961db3e189312d8, type: 3}
    - {fileID: 21300000, guid: 8513a4c37b3952e4ba1ade5b01c580c3, type: 3}
    - {fileID: 21300000, guid: 5264fa1fc611bc948858de46caa40983, type: 3}
    - {fileID: 21300000, guid: 8282906b8f59fa748a257971c5e567c2, type: 3}
    - {fileID: 21300000, guid: d93c7f8330c02a340a87b4a02bad2c7a, type: 3}
    - {fileID: 21300000, guid: 5ad8561380050974e93310e3ca6b1373, type: 3}
  m_AnimationClipSettings:
    serializedVersion: 2
    m_AdditiveReferencePoseClip: {fileID: 0}
    m_AdditiveReferencePoseTime: 0
    m_StartTime: 0
    m_StopTime: 1.25
    m_OrientationOffsetY: 0
    m_Level: 0
    m_CycleOffset: 0
    m_HasAdditiveReferencePose: 0
    m_LoopTime: 1
    m_LoopBlend: 0
    m_LoopBlendOrientation: 0
    m_LoopBlendPositionY: 0
    m_LoopBlendPositionXZ: 0
    m_KeepOriginalOrientation: 0
    m_KeepOriginalPositionY: 1
    m_KeepOriginalPositionXZ: 0
    m_HeightFromFeet: 0
    m_Mirror: 0
  m_EditorCurves: []
  m_EulerEditorCurves: []
  m_HasGenericRootTransform: 0
  m_HasMotionFloatCurves: 0
  m_Events: []
