%YAML 1.1
%TAG !u! tag:unity3d.com,2011:
--- !u!74 &7400000
AnimationClip:
  m_ObjectHideFlags: 0
  m_CorrespondingSourceObject: {fileID: 0}
  m_PrefabInstance: {fileID: 0}
  m_PrefabAsset: {fileID: 0}
  m_Name: Idle S
  serializedVersion: 6
  m_Legacy: 0
  m_Compressed: 0
  m_UseHighQualityCurve: 1
  m_RotationCurves: []
  m_CompressedRotationCurves: []
  m_EulerCurves: []
  m_PositionCurves: []
  m_ScaleCurves: []
  m_FloatCurves: []
  m_PPtrCurves:
  - curve:
    - time: 0
      value: {fileID: 21300000, guid: ea982397f95573345a31f415c51f04f9, type: 3}
    - time: 0.02
      value: {fileID: 21300000, guid: 544ea8b4ebd4c1543a70265e231110f2, type: 3}
    - time: 0.04
      value: {fileID: 21300000, guid: 77130c5523c85e041a063b468b1d2b41, type: 3}
    - time: 0.06
      value: {fileID: 21300000, guid: 381e67eedb7dde04abd45b0e4fedfb24, type: 3}
    - time: 0.08
      value: {fileID: 21300000, guid: 9a98a41fc2e0ebf44a31fa7146de6abd, type: 3}
    - time: 0.1
      value: {fileID: 21300000, guid: c3499d3850ff0d94f80f27336dcd7712, type: 3}
    - time: 0.12
      value: {fileID: 21300000, guid: 2313d3fa9b8f61c4e863b2d651b8971c, type: 3}
    - time: 0.14
      value: {fileID: 21300000, guid: ad18d17bbdbc8e245b91538a77d5ea11, type: 3}
    - time: 0.16
      value: {fileID: 21300000, guid: 4d0d0f1438efb3d42a59c79c8278cb3f, type: 3}
    - time: 0.18
      value: {fileID: 21300000, guid: 63d23122f3b95bf4c9f66177f4095a5a, type: 3}
    - time: 0.2
      value: {fileID: 21300000, guid: 039c73427310b3e4b917a2ebd9681ee7, type: 3}
    - time: 0.22
      value: {fileID: 21300000, guid: 02a876ac2ce56c04082fd20d83510595, type: 3}
    - time: 0.24
      value: {fileID: 21300000, guid: 21a516f8d8d30c5408017078b6b6b455, type: 3}
    - time: 0.26
      value: {fileID: 21300000, guid: 57889b3e62e37d14aa249a986b74ca08, type: 3}
    - time: 0.28
      value: {fileID: 21300000, guid: 6d65ca272e2b1b7488d290c8ca3cea44, type: 3}
    - time: 0.3
      value: {fileID: 21300000, guid: 5223f391782450a4ea0c7cb4c5a3e262, type: 3}
    - time: 0.32
      value: {fileID: 21300000, guid: 6b8cee682eebf2145946db0dd59668ae, type: 3}
    - time: 0.34
      value: {fileID: 21300000, guid: f132503a3d10dfa4f97ae2e14aa98929, type: 3}
    - time: 0.36
      value: {fileID: 21300000, guid: eecad874c6d1bf74994bc59180cf0ed9, type: 3}
    - time: 0.38
      value: {fileID: 21300000, guid: 43caff4bbcf96bb47a6d961278044fb3, type: 3}
    - time: 0.4
      value: {fileID: 21300000, guid: 6559d0cd368eac74b8b5d8e18ef93748, type: 3}
    - time: 0.42
      value: {fileID: 21300000, guid: e945273509d54524fbbe9bfa88e69b60, type: 3}
    - time: 0.44
      value: {fileID: 21300000, guid: a6d5f6f629a2ced478c26c56103ce6d6, type: 3}
    - time: 0.46
      value: {fileID: 21300000, guid: d1574f8e23db13c48aedaf975c3fc5e7, type: 3}
    - time: 0.48
      value: {fileID: 21300000, guid: 08c97fee5b2961a41955302975ab245d, type: 3}
    - time: 0.5
      value: {fileID: 21300000, guid: 337c6cad3d021bc4bb41c9c900aa5a48, type: 3}
    - time: 0.52
      value: {fileID: 21300000, guid: 2aedb84f8393f354c9e5772525d5581f, type: 3}
    - time: 0.54
      value: {fileID: 21300000, guid: 7adb99ba21148884a9ec72ead526fe17, type: 3}
    - time: 0.56
      value: {fileID: 21300000, guid: 2aa35186e64a58d41974746f1d95945f, type: 3}
    - time: 0.58
      value: {fileID: 21300000, guid: dded65837d9ce0440aed40f47fccc623, type: 3}
    - time: 0.6
      value: {fileID: 21300000, guid: 8e1da10558b5d6a4cab11b88744a8923, type: 3}
    - time: 0.62
      value: {fileID: 21300000, guid: 4697ebbb30ebc1644ab9a65f3533dc37, type: 3}
    - time: 0.64
      value: {fileID: 21300000, guid: 21f9c05689d69a44d8ba6d119b0db719, type: 3}
    - time: 0.66
      value: {fileID: 21300000, guid: fb17cc29f3e94894ea485db976eb599f, type: 3}
    - time: 0.68
      value: {fileID: 21300000, guid: 7fe09c4854de369469dabedd16f21fc3, type: 3}
    - time: 0.7
      value: {fileID: 21300000, guid: f81ea6db47e932c45a99e1dd3afdbf13, type: 3}
    - time: 0.72
      value: {fileID: 21300000, guid: fff3dd79fe5cef848ac27f66feaf6337, type: 3}
    - time: 0.74
      value: {fileID: 21300000, guid: 3e4c8af34a06c8644831f410c28d9bb0, type: 3}
    - time: 0.76
      value: {fileID: 21300000, guid: b53de3fe08ba97c40a7007ab64cb8a60, type: 3}
    - time: 0.78
      value: {fileID: 21300000, guid: 26bae2fcbf8c80044963a4c1ec0dc073, type: 3}
    - time: 0.8
      value: {fileID: 21300000, guid: bbf42bc47982af141a9acd12a94de030, type: 3}
    - time: 0.82
      value: {fileID: 21300000, guid: c3dfc9e62ad62864088077fc75f4483a, type: 3}
    - time: 0.84
      value: {fileID: 21300000, guid: 357a772fa3e69ae4595565fbabc72f35, type: 3}
    - time: 0.86
      value: {fileID: 21300000, guid: 3de4a09a22c523a4da2c7b2d9cc0201d, type: 3}
    - time: 0.88
      value: {fileID: 21300000, guid: 90d686b4ed0767b4082b550b5426b694, type: 3}
    - time: 0.9
      value: {fileID: 21300000, guid: 5643b18902a439e4c9159aad03231242, type: 3}
    - time: 0.92
      value: {fileID: 21300000, guid: 9d96e0c6c372db24d9615ed19f5754d6, type: 3}
    - time: 0.94
      value: {fileID: 21300000, guid: e9dab0429432af14089dc448055e6ebe, type: 3}
    - time: 0.96
      value: {fileID: 21300000, guid: e7cf3a21d5e6daf409e303a58e96e98b, type: 3}
    - time: 0.98
      value: {fileID: 21300000, guid: 94f6855857332054495a780004bc4238, type: 3}
    - time: 1
      value: {fileID: 21300000, guid: 6d41892371187a84c9c7c784697f8e7c, type: 3}
    - time: 1.02
      value: {fileID: 21300000, guid: 17c463149fa1f4543a7e75f57461a843, type: 3}
    - time: 1.04
      value: {fileID: 21300000, guid: 9d6039cab6250eb4da80afeae1662dfb, type: 3}
    - time: 1.06
      value: {fileID: 21300000, guid: 701c7fca418d8314c99af917a1b06e02, type: 3}
    - time: 1.08
      value: {fileID: 21300000, guid: d30120491268735439ad2cb28b8ad611, type: 3}
    - time: 1.1
      value: {fileID: 21300000, guid: 76e110483b964aa449e83f482488e3a8, type: 3}
    - time: 1.12
      value: {fileID: 21300000, guid: 8c2f734e58c4832419f2eb2ffe658b6b, type: 3}
    - time: 1.14
      value: {fileID: 21300000, guid: 241496005d939c74d928054315e921e1, type: 3}
    - time: 1.16
      value: {fileID: 21300000, guid: 85ef44072591cad48a7abb0697fe045e, type: 3}
    - time: 1.18
      value: {fileID: 21300000, guid: ef9ceae0f42040442b8c8f7ff1fa549d, type: 3}
    - time: 1.2
      value: {fileID: 21300000, guid: 35e893fca8145f04dbc0853080faf321, type: 3}
    attribute: m_Sprite
    path: 
    classID: 212
    script: {fileID: 0}
  m_SampleRate: 50
  m_WrapMode: 0
  m_Bounds:
    m_Center: {x: 0, y: 0, z: 0}
    m_Extent: {x: 0, y: 0, z: 0}
  m_ClipBindingConstant:
    genericBindings:
    - serializedVersion: 2
      path: 0
      attribute: 0
      script: {fileID: 0}
      typeID: 212
      customType: 23
      isPPtrCurve: 1
    pptrCurveMapping:
    - {fileID: 21300000, guid: ea982397f95573345a31f415c51f04f9, type: 3}
    - {fileID: 21300000, guid: 544ea8b4ebd4c1543a70265e231110f2, type: 3}
    - {fileID: 21300000, guid: 77130c5523c85e041a063b468b1d2b41, type: 3}
    - {fileID: 21300000, guid: 381e67eedb7dde04abd45b0e4fedfb24, type: 3}
    - {fileID: 21300000, guid: 9a98a41fc2e0ebf44a31fa7146de6abd, type: 3}
    - {fileID: 21300000, guid: c3499d3850ff0d94f80f27336dcd7712, type: 3}
    - {fileID: 21300000, guid: 2313d3fa9b8f61c4e863b2d651b8971c, type: 3}
    - {fileID: 21300000, guid: ad18d17bbdbc8e245b91538a77d5ea11, type: 3}
    - {fileID: 21300000, guid: 4d0d0f1438efb3d42a59c79c8278cb3f, type: 3}
    - {fileID: 21300000, guid: 63d23122f3b95bf4c9f66177f4095a5a, type: 3}
    - {fileID: 21300000, guid: 039c73427310b3e4b917a2ebd9681ee7, type: 3}
    - {fileID: 21300000, guid: 02a876ac2ce56c04082fd20d83510595, type: 3}
    - {fileID: 21300000, guid: 21a516f8d8d30c5408017078b6b6b455, type: 3}
    - {fileID: 21300000, guid: 57889b3e62e37d14aa249a986b74ca08, type: 3}
    - {fileID: 21300000, guid: 6d65ca272e2b1b7488d290c8ca3cea44, type: 3}
    - {fileID: 21300000, guid: 5223f391782450a4ea0c7cb4c5a3e262, type: 3}
    - {fileID: 21300000, guid: 6b8cee682eebf2145946db0dd59668ae, type: 3}
    - {fileID: 21300000, guid: f132503a3d10dfa4f97ae2e14aa98929, type: 3}
    - {fileID: 21300000, guid: eecad874c6d1bf74994bc59180cf0ed9, type: 3}
    - {fileID: 21300000, guid: 43caff4bbcf96bb47a6d961278044fb3, type: 3}
    - {fileID: 21300000, guid: 6559d0cd368eac74b8b5d8e18ef93748, type: 3}
    - {fileID: 21300000, guid: e945273509d54524fbbe9bfa88e69b60, type: 3}
    - {fileID: 21300000, guid: a6d5f6f629a2ced478c26c56103ce6d6, type: 3}
    - {fileID: 21300000, guid: d1574f8e23db13c48aedaf975c3fc5e7, type: 3}
    - {fileID: 21300000, guid: 08c97fee5b2961a41955302975ab245d, type: 3}
    - {fileID: 21300000, guid: 337c6cad3d021bc4bb41c9c900aa5a48, type: 3}
    - {fileID: 21300000, guid: 2aedb84f8393f354c9e5772525d5581f, type: 3}
    - {fileID: 21300000, guid: 7adb99ba21148884a9ec72ead526fe17, type: 3}
    - {fileID: 21300000, guid: 2aa35186e64a58d41974746f1d95945f, type: 3}
    - {fileID: 21300000, guid: dded65837d9ce0440aed40f47fccc623, type: 3}
    - {fileID: 21300000, guid: 8e1da10558b5d6a4cab11b88744a8923, type: 3}
    - {fileID: 21300000, guid: 4697ebbb30ebc1644ab9a65f3533dc37, type: 3}
    - {fileID: 21300000, guid: 21f9c05689d69a44d8ba6d119b0db719, type: 3}
    - {fileID: 21300000, guid: fb17cc29f3e94894ea485db976eb599f, type: 3}
    - {fileID: 21300000, guid: 7fe09c4854de369469dabedd16f21fc3, type: 3}
    - {fileID: 21300000, guid: f81ea6db47e932c45a99e1dd3afdbf13, type: 3}
    - {fileID: 21300000, guid: fff3dd79fe5cef848ac27f66feaf6337, type: 3}
    - {fileID: 21300000, guid: 3e4c8af34a06c8644831f410c28d9bb0, type: 3}
    - {fileID: 21300000, guid: b53de3fe08ba97c40a7007ab64cb8a60, type: 3}
    - {fileID: 21300000, guid: 26bae2fcbf8c80044963a4c1ec0dc073, type: 3}
    - {fileID: 21300000, guid: bbf42bc47982af141a9acd12a94de030, type: 3}
    - {fileID: 21300000, guid: c3dfc9e62ad62864088077fc75f4483a, type: 3}
    - {fileID: 21300000, guid: 357a772fa3e69ae4595565fbabc72f35, type: 3}
    - {fileID: 21300000, guid: 3de4a09a22c523a4da2c7b2d9cc0201d, type: 3}
    - {fileID: 21300000, guid: 90d686b4ed0767b4082b550b5426b694, type: 3}
    - {fileID: 21300000, guid: 5643b18902a439e4c9159aad03231242, type: 3}
    - {fileID: 21300000, guid: 9d96e0c6c372db24d9615ed19f5754d6, type: 3}
    - {fileID: 21300000, guid: e9dab0429432af14089dc448055e6ebe, type: 3}
    - {fileID: 21300000, guid: e7cf3a21d5e6daf409e303a58e96e98b, type: 3}
    - {fileID: 21300000, guid: 94f6855857332054495a780004bc4238, type: 3}
    - {fileID: 21300000, guid: 6d41892371187a84c9c7c784697f8e7c, type: 3}
    - {fileID: 21300000, guid: 17c463149fa1f4543a7e75f57461a843, type: 3}
    - {fileID: 21300000, guid: 9d6039cab6250eb4da80afeae1662dfb, type: 3}
    - {fileID: 21300000, guid: 701c7fca418d8314c99af917a1b06e02, type: 3}
    - {fileID: 21300000, guid: d30120491268735439ad2cb28b8ad611, type: 3}
    - {fileID: 21300000, guid: 76e110483b964aa449e83f482488e3a8, type: 3}
    - {fileID: 21300000, guid: 8c2f734e58c4832419f2eb2ffe658b6b, type: 3}
    - {fileID: 21300000, guid: 241496005d939c74d928054315e921e1, type: 3}
    - {fileID: 21300000, guid: 85ef44072591cad48a7abb0697fe045e, type: 3}
    - {fileID: 21300000, guid: ef9ceae0f42040442b8c8f7ff1fa549d, type: 3}
    - {fileID: 21300000, guid: 35e893fca8145f04dbc0853080faf321, type: 3}
  m_AnimationClipSettings:
    serializedVersion: 2
    m_AdditiveReferencePoseClip: {fileID: 0}
    m_AdditiveReferencePoseTime: 0
    m_StartTime: 0
    m_StopTime: 1.22
    m_OrientationOffsetY: 0
    m_Level: 0
    m_CycleOffset: 0
    m_HasAdditiveReferencePose: 0
    m_LoopTime: 1
    m_LoopBlend: 0
    m_LoopBlendOrientation: 0
    m_LoopBlendPositionY: 0
    m_LoopBlendPositionXZ: 0
    m_KeepOriginalOrientation: 0
    m_KeepOriginalPositionY: 1
    m_KeepOriginalPositionXZ: 0
    m_HeightFromFeet: 0
    m_Mirror: 0
  m_EditorCurves: []
  m_EulerEditorCurves: []
  m_HasGenericRootTransform: 0
  m_HasMotionFloatCurves: 0
  m_Events: []
