%YAML 1.1
%TAG !u! tag:unity3d.com,2011:
--- !u!74 &7400000
AnimationClip:
  m_ObjectHideFlags: 0
  m_CorrespondingSourceObject: {fileID: 0}
  m_PrefabInstance: {fileID: 0}
  m_PrefabAsset: {fileID: 0}
  m_Name: Idle_S
  serializedVersion: 6
  m_Legacy: 0
  m_Compressed: 0
  m_UseHighQualityCurve: 1
  m_RotationCurves: []
  m_CompressedRotationCurves: []
  m_EulerCurves: []
  m_PositionCurves: []
  m_ScaleCurves: []
  m_FloatCurves: []
  m_PPtrCurves:
  - curve:
    - time: 0
      value: {fileID: 21300000, guid: 09500688cc417ec4e916ed29326ae5e0, type: 3}
    - time: 0.083333336
      value: {fileID: 21300000, guid: 30a06d9e637c9ce4092922b6f21f7303, type: 3}
    - time: 0.16666667
      value: {fileID: 21300000, guid: 019646e221b62fd47a35a8d2a84b78bc, type: 3}
    - time: 0.25
      value: {fileID: 21300000, guid: 23eb39a0b23e4de49aced372ae2967ec, type: 3}
    - time: 0.33333334
      value: {fileID: 21300000, guid: 4d8dda03dd17b8d40aff330ddbec3547, type: 3}
    - time: 0.41666666
      value: {fileID: 21300000, guid: 2c23423dad83a2a4aac6aa512e39b101, type: 3}
    - time: 0.5
      value: {fileID: 21300000, guid: 23824334cb5815c4ab8e501b791804db, type: 3}
    - time: 0.5833333
      value: {fileID: 21300000, guid: 50770a07e819f594a803ed8a45cce6ba, type: 3}
    - time: 0.6666667
      value: {fileID: 21300000, guid: 64df8220c91c669409694dc59b75a496, type: 3}
    - time: 0.75
      value: {fileID: 21300000, guid: 18522cc5267b0a0479d429f68cf0e0d0, type: 3}
    - time: 0.8333333
      value: {fileID: 21300000, guid: be04590c9bc346e438e6f5da4ac6193e, type: 3}
    - time: 0.9166667
      value: {fileID: 21300000, guid: 87c02894fd00dfd4d89d29d106c37870, type: 3}
    - time: 1
      value: {fileID: 21300000, guid: e4b6f14ed6dc38b4c8ca780f5adc3d6f, type: 3}
    - time: 1.0833334
      value: {fileID: 21300000, guid: 14a66f9d99cb8ab47ba738bc9d49104c, type: 3}
    - time: 1.1666666
      value: {fileID: 21300000, guid: c324dce1200deb043807c5b6fda67fb3, type: 3}
    attribute: m_Sprite
    path: 
    classID: 212
    script: {fileID: 0}
  m_SampleRate: 12
  m_WrapMode: 0
  m_Bounds:
    m_Center: {x: 0, y: 0, z: 0}
    m_Extent: {x: 0, y: 0, z: 0}
  m_ClipBindingConstant:
    genericBindings:
    - serializedVersion: 2
      path: 0
      attribute: 0
      script: {fileID: 0}
      typeID: 212
      customType: 23
      isPPtrCurve: 1
    pptrCurveMapping:
    - {fileID: 21300000, guid: 09500688cc417ec4e916ed29326ae5e0, type: 3}
    - {fileID: 21300000, guid: 30a06d9e637c9ce4092922b6f21f7303, type: 3}
    - {fileID: 21300000, guid: 019646e221b62fd47a35a8d2a84b78bc, type: 3}
    - {fileID: 21300000, guid: 23eb39a0b23e4de49aced372ae2967ec, type: 3}
    - {fileID: 21300000, guid: 4d8dda03dd17b8d40aff330ddbec3547, type: 3}
    - {fileID: 21300000, guid: 2c23423dad83a2a4aac6aa512e39b101, type: 3}
    - {fileID: 21300000, guid: 23824334cb5815c4ab8e501b791804db, type: 3}
    - {fileID: 21300000, guid: 50770a07e819f594a803ed8a45cce6ba, type: 3}
    - {fileID: 21300000, guid: 64df8220c91c669409694dc59b75a496, type: 3}
    - {fileID: 21300000, guid: 18522cc5267b0a0479d429f68cf0e0d0, type: 3}
    - {fileID: 21300000, guid: be04590c9bc346e438e6f5da4ac6193e, type: 3}
    - {fileID: 21300000, guid: 87c02894fd00dfd4d89d29d106c37870, type: 3}
    - {fileID: 21300000, guid: e4b6f14ed6dc38b4c8ca780f5adc3d6f, type: 3}
    - {fileID: 21300000, guid: 14a66f9d99cb8ab47ba738bc9d49104c, type: 3}
    - {fileID: 21300000, guid: c324dce1200deb043807c5b6fda67fb3, type: 3}
  m_AnimationClipSettings:
    serializedVersion: 2
    m_AdditiveReferencePoseClip: {fileID: 0}
    m_AdditiveReferencePoseTime: 0
    m_StartTime: 0
    m_StopTime: 1.25
    m_OrientationOffsetY: 0
    m_Level: 0
    m_CycleOffset: 0
    m_HasAdditiveReferencePose: 0
    m_LoopTime: 1
    m_LoopBlend: 0
    m_LoopBlendOrientation: 0
    m_LoopBlendPositionY: 0
    m_LoopBlendPositionXZ: 0
    m_KeepOriginalOrientation: 0
    m_KeepOriginalPositionY: 1
    m_KeepOriginalPositionXZ: 0
    m_HeightFromFeet: 0
    m_Mirror: 0
  m_EditorCurves: []
  m_EulerEditorCurves: []
  m_HasGenericRootTransform: 0
  m_HasMotionFloatCurves: 0
  m_Events: []
