%YAML 1.1
%TAG !u! tag:unity3d.com,2011:
--- !u!74 &7400000
AnimationClip:
  m_ObjectHideFlags: 0
  m_CorrespondingSourceObject: {fileID: 0}
  m_PrefabInstance: {fileID: 0}
  m_PrefabAsset: {fileID: 0}
  m_Name: Idle_E
  serializedVersion: 6
  m_Legacy: 0
  m_Compressed: 0
  m_UseHighQualityCurve: 1
  m_RotationCurves: []
  m_CompressedRotationCurves: []
  m_EulerCurves: []
  m_PositionCurves: []
  m_ScaleCurves: []
  m_FloatCurves: []
  m_PPtrCurves:
  - curve:
    - time: 0
      value: {fileID: 21300000, guid: 3580f36623353834785855e1c2669f5e, type: 3}
    - time: 0.083333336
      value: {fileID: 21300000, guid: 7a332467041d44f47ba5938edcd92cee, type: 3}
    - time: 0.16666667
      value: {fileID: 21300000, guid: 18d81c665f741d746b723a27e888db1f, type: 3}
    - time: 0.25
      value: {fileID: 21300000, guid: 844f3153c1913734d92f3671e4fd561a, type: 3}
    - time: 0.33333334
      value: {fileID: 21300000, guid: 7ebdf2761634f72439876c9720a7539f, type: 3}
    - time: 0.41666666
      value: {fileID: 21300000, guid: a91ee9a375f2c2c4c83426d4edb0c2bb, type: 3}
    - time: 0.5
      value: {fileID: 21300000, guid: fc9c6df1383904c429451d5064c6560b, type: 3}
    - time: 0.5833333
      value: {fileID: 21300000, guid: 1af4ccfa1302dc048b7c2205101e39b1, type: 3}
    - time: 0.6666667
      value: {fileID: 21300000, guid: 742a815a51b53ee4e83e80052f2186f7, type: 3}
    - time: 0.75
      value: {fileID: 21300000, guid: 2325a8dd31fb9684696e322d5ee15095, type: 3}
    - time: 0.8333333
      value: {fileID: 21300000, guid: 2e5199708ceb5f54196271a77ac26a76, type: 3}
    - time: 0.9166667
      value: {fileID: 21300000, guid: 0598ad1bd7de37a42ae66b9cf653b9e3, type: 3}
    - time: 1
      value: {fileID: 21300000, guid: cc6da639204e8ed42b7a8636bffa2a6e, type: 3}
    - time: 1.0833334
      value: {fileID: 21300000, guid: 4a1cbb618be5bec468e054e021462814, type: 3}
    - time: 1.1666666
      value: {fileID: 21300000, guid: 56d31c3837d6e174fa0289ec6638970b, type: 3}
    attribute: m_Sprite
    path: 
    classID: 212
    script: {fileID: 0}
  m_SampleRate: 12
  m_WrapMode: 0
  m_Bounds:
    m_Center: {x: 0, y: 0, z: 0}
    m_Extent: {x: 0, y: 0, z: 0}
  m_ClipBindingConstant:
    genericBindings:
    - serializedVersion: 2
      path: 0
      attribute: 0
      script: {fileID: 0}
      typeID: 212
      customType: 23
      isPPtrCurve: 1
    pptrCurveMapping:
    - {fileID: 21300000, guid: 3580f36623353834785855e1c2669f5e, type: 3}
    - {fileID: 21300000, guid: 7a332467041d44f47ba5938edcd92cee, type: 3}
    - {fileID: 21300000, guid: 18d81c665f741d746b723a27e888db1f, type: 3}
    - {fileID: 21300000, guid: 844f3153c1913734d92f3671e4fd561a, type: 3}
    - {fileID: 21300000, guid: 7ebdf2761634f72439876c9720a7539f, type: 3}
    - {fileID: 21300000, guid: a91ee9a375f2c2c4c83426d4edb0c2bb, type: 3}
    - {fileID: 21300000, guid: fc9c6df1383904c429451d5064c6560b, type: 3}
    - {fileID: 21300000, guid: 1af4ccfa1302dc048b7c2205101e39b1, type: 3}
    - {fileID: 21300000, guid: 742a815a51b53ee4e83e80052f2186f7, type: 3}
    - {fileID: 21300000, guid: 2325a8dd31fb9684696e322d5ee15095, type: 3}
    - {fileID: 21300000, guid: 2e5199708ceb5f54196271a77ac26a76, type: 3}
    - {fileID: 21300000, guid: 0598ad1bd7de37a42ae66b9cf653b9e3, type: 3}
    - {fileID: 21300000, guid: cc6da639204e8ed42b7a8636bffa2a6e, type: 3}
    - {fileID: 21300000, guid: 4a1cbb618be5bec468e054e021462814, type: 3}
    - {fileID: 21300000, guid: 56d31c3837d6e174fa0289ec6638970b, type: 3}
  m_AnimationClipSettings:
    serializedVersion: 2
    m_AdditiveReferencePoseClip: {fileID: 0}
    m_AdditiveReferencePoseTime: 0
    m_StartTime: 0
    m_StopTime: 1.25
    m_OrientationOffsetY: 0
    m_Level: 0
    m_CycleOffset: 0
    m_HasAdditiveReferencePose: 0
    m_LoopTime: 1
    m_LoopBlend: 0
    m_LoopBlendOrientation: 0
    m_LoopBlendPositionY: 0
    m_LoopBlendPositionXZ: 0
    m_KeepOriginalOrientation: 0
    m_KeepOriginalPositionY: 1
    m_KeepOriginalPositionXZ: 0
    m_HeightFromFeet: 0
    m_Mirror: 0
  m_EditorCurves: []
  m_EulerEditorCurves: []
  m_HasGenericRootTransform: 0
  m_HasMotionFloatCurves: 0
  m_Events: []
