%YAML 1.1
%TAG !u! tag:unity3d.com,2011:
--- !u!74 &7400000
AnimationClip:
  m_ObjectHideFlags: 0
  m_CorrespondingSourceObject: {fileID: 0}
  m_PrefabInstance: {fileID: 0}
  m_PrefabAsset: {fileID: 0}
  m_Name: Idle_N
  serializedVersion: 6
  m_Legacy: 0
  m_Compressed: 0
  m_UseHighQualityCurve: 1
  m_RotationCurves: []
  m_CompressedRotationCurves: []
  m_EulerCurves: []
  m_PositionCurves: []
  m_ScaleCurves: []
  m_FloatCurves: []
  m_PPtrCurves:
  - curve:
    - time: 0
      value: {fileID: 21300000, guid: dc01d813f872121409e1876d945dac2d, type: 3}
    - time: 0.083333336
      value: {fileID: 21300000, guid: 0e0fe3d05b5fc5d46be27b28ad584a79, type: 3}
    - time: 0.16666667
      value: {fileID: 21300000, guid: a0fdb011f282fe94ba5dfcf46af7221b, type: 3}
    - time: 0.25
      value: {fileID: 21300000, guid: c8f767a84f098444788544cd5ee5b81a, type: 3}
    - time: 0.33333334
      value: {fileID: 21300000, guid: 1549a887c881a1d4699dfa776e94ec19, type: 3}
    - time: 0.41666666
      value: {fileID: 21300000, guid: 85254d880516c2e40868f119e743535e, type: 3}
    - time: 0.5
      value: {fileID: 21300000, guid: 9d94aa982a6534f4ab40f01b7f85a582, type: 3}
    - time: 0.5833333
      value: {fileID: 21300000, guid: 7150a1d0986b98546bcc76f1aa5cac51, type: 3}
    - time: 0.6666667
      value: {fileID: 21300000, guid: 74d07f066babd3b4d8315ad77d6bd244, type: 3}
    - time: 0.75
      value: {fileID: 21300000, guid: 9bf8761603a2cae46a8400a0e0a7cf83, type: 3}
    - time: 0.8333333
      value: {fileID: 21300000, guid: f0da996574004cf439bd043aaaf676cb, type: 3}
    - time: 0.9166667
      value: {fileID: 21300000, guid: 8c01e696c15e78948ba67d718faf607c, type: 3}
    - time: 1
      value: {fileID: 21300000, guid: f6915bcf8c066c54291c5fbc1a0b0f6c, type: 3}
    - time: 1.0833334
      value: {fileID: 21300000, guid: 70a33714fe85edb43b31ea217da3a162, type: 3}
    - time: 1.1666666
      value: {fileID: 21300000, guid: 191e00448ddcaae4f9b94980762d4873, type: 3}
    attribute: m_Sprite
    path: 
    classID: 212
    script: {fileID: 0}
  m_SampleRate: 12
  m_WrapMode: 0
  m_Bounds:
    m_Center: {x: 0, y: 0, z: 0}
    m_Extent: {x: 0, y: 0, z: 0}
  m_ClipBindingConstant:
    genericBindings:
    - serializedVersion: 2
      path: 0
      attribute: 0
      script: {fileID: 0}
      typeID: 212
      customType: 23
      isPPtrCurve: 1
    pptrCurveMapping:
    - {fileID: 21300000, guid: dc01d813f872121409e1876d945dac2d, type: 3}
    - {fileID: 21300000, guid: 0e0fe3d05b5fc5d46be27b28ad584a79, type: 3}
    - {fileID: 21300000, guid: a0fdb011f282fe94ba5dfcf46af7221b, type: 3}
    - {fileID: 21300000, guid: c8f767a84f098444788544cd5ee5b81a, type: 3}
    - {fileID: 21300000, guid: 1549a887c881a1d4699dfa776e94ec19, type: 3}
    - {fileID: 21300000, guid: 85254d880516c2e40868f119e743535e, type: 3}
    - {fileID: 21300000, guid: 9d94aa982a6534f4ab40f01b7f85a582, type: 3}
    - {fileID: 21300000, guid: 7150a1d0986b98546bcc76f1aa5cac51, type: 3}
    - {fileID: 21300000, guid: 74d07f066babd3b4d8315ad77d6bd244, type: 3}
    - {fileID: 21300000, guid: 9bf8761603a2cae46a8400a0e0a7cf83, type: 3}
    - {fileID: 21300000, guid: f0da996574004cf439bd043aaaf676cb, type: 3}
    - {fileID: 21300000, guid: 8c01e696c15e78948ba67d718faf607c, type: 3}
    - {fileID: 21300000, guid: f6915bcf8c066c54291c5fbc1a0b0f6c, type: 3}
    - {fileID: 21300000, guid: 70a33714fe85edb43b31ea217da3a162, type: 3}
    - {fileID: 21300000, guid: 191e00448ddcaae4f9b94980762d4873, type: 3}
  m_AnimationClipSettings:
    serializedVersion: 2
    m_AdditiveReferencePoseClip: {fileID: 0}
    m_AdditiveReferencePoseTime: 0
    m_StartTime: 0
    m_StopTime: 1.25
    m_OrientationOffsetY: 0
    m_Level: 0
    m_CycleOffset: 0
    m_HasAdditiveReferencePose: 0
    m_LoopTime: 1
    m_LoopBlend: 0
    m_LoopBlendOrientation: 0
    m_LoopBlendPositionY: 0
    m_LoopBlendPositionXZ: 0
    m_KeepOriginalOrientation: 0
    m_KeepOriginalPositionY: 1
    m_KeepOriginalPositionXZ: 0
    m_HeightFromFeet: 0
    m_Mirror: 0
  m_EditorCurves: []
  m_EulerEditorCurves: []
  m_HasGenericRootTransform: 0
  m_HasMotionFloatCurves: 0
  m_Events: []
