%YAML 1.1
%TAG !u! tag:unity3d.com,2011:
--- !u!74 &7400000
AnimationClip:
  m_ObjectHideFlags: 0
  m_CorrespondingSourceObject: {fileID: 0}
  m_PrefabInstance: {fileID: 0}
  m_PrefabAsset: {fileID: 0}
  m_Name: Idle N
  serializedVersion: 6
  m_Legacy: 0
  m_Compressed: 0
  m_UseHighQualityCurve: 1
  m_RotationCurves: []
  m_CompressedRotationCurves: []
  m_EulerCurves: []
  m_PositionCurves: []
  m_ScaleCurves: []
  m_FloatCurves: []
  m_PPtrCurves:
  - curve:
    - time: 0
      value: {fileID: 21300000, guid: 412705819db90d441807e546c0b1d9ae, type: 3}
    - time: 0.02
      value: {fileID: 21300000, guid: 5655fc21ee18e5b48adf80f6cae75997, type: 3}
    - time: 0.04
      value: {fileID: 21300000, guid: 1410356eb5c534249b301d0d3b6600ae, type: 3}
    - time: 0.06
      value: {fileID: 21300000, guid: b263ad76741ff174aade93b0455bb869, type: 3}
    - time: 0.08
      value: {fileID: 21300000, guid: 5fe4b4c324d38594db52e7936bbe3bb2, type: 3}
    - time: 0.1
      value: {fileID: 21300000, guid: 0c9a8c665e1d2e849aac902b8754857f, type: 3}
    - time: 0.12
      value: {fileID: 21300000, guid: ea5d980918e99eb44aeaba2abf3245c3, type: 3}
    - time: 0.14
      value: {fileID: 21300000, guid: 2136702942bfe2a4495734dd437d1bf7, type: 3}
    - time: 0.16
      value: {fileID: 21300000, guid: f10677e4f1543f04eb3d56ae207654ba, type: 3}
    - time: 0.18
      value: {fileID: 21300000, guid: 85bf63ea24ec35a4f9a6f1807f9465d6, type: 3}
    - time: 0.2
      value: {fileID: 21300000, guid: 7ed3e79851130454e9f91aead583747a, type: 3}
    - time: 0.22
      value: {fileID: 21300000, guid: 1c339024270b6d6469f9c1d5393209e6, type: 3}
    - time: 0.24
      value: {fileID: 21300000, guid: ed46dacf4c180504eb467a76443d76c2, type: 3}
    - time: 0.26
      value: {fileID: 21300000, guid: b22051058f5c4dc438ccde9686036913, type: 3}
    - time: 0.28
      value: {fileID: 21300000, guid: 991049fc7d6820d4b995d9051030f4d7, type: 3}
    - time: 0.3
      value: {fileID: 21300000, guid: d781a58249990e04e84dfeab9caf4ecc, type: 3}
    - time: 0.32
      value: {fileID: 21300000, guid: 91d0892192a9a9b48b0a45e852b6d1cc, type: 3}
    - time: 0.34
      value: {fileID: 21300000, guid: 42ed62e7a91514c4eb753b42b5ede9c6, type: 3}
    - time: 0.36
      value: {fileID: 21300000, guid: f7919314b8cfddd4ea9086aaf2c8d8c8, type: 3}
    - time: 0.38
      value: {fileID: 21300000, guid: 0b9685b5ac9c7b348b55718af8ef074c, type: 3}
    - time: 0.4
      value: {fileID: 21300000, guid: 3d8379888128dc041b3c19a646b48116, type: 3}
    - time: 0.42
      value: {fileID: 21300000, guid: 2f376cc23f834304091fa314807370c4, type: 3}
    - time: 0.44
      value: {fileID: 21300000, guid: a0636552c9a604946b553e5d71ac1db7, type: 3}
    - time: 0.46
      value: {fileID: 21300000, guid: 01e45394d48e49444a59446e20977511, type: 3}
    - time: 0.48
      value: {fileID: 21300000, guid: 63b5c60ee33f7d74494510d9a40086f6, type: 3}
    - time: 0.5
      value: {fileID: 21300000, guid: 771df66e443ad044a9f63894821b7c3b, type: 3}
    - time: 0.52
      value: {fileID: 21300000, guid: 11e20dd12d625ab4399ff04f85e9e7f7, type: 3}
    - time: 0.54
      value: {fileID: 21300000, guid: f60e546f53b1d444aab6a53aadeb0e74, type: 3}
    - time: 0.56
      value: {fileID: 21300000, guid: b5f06bb88c81fa7419ac35a3098692bd, type: 3}
    - time: 0.58
      value: {fileID: 21300000, guid: 13b9c1c3063102841b92149c92b4fd6c, type: 3}
    - time: 0.6
      value: {fileID: 21300000, guid: f277f223a83c14b4bb77849416344153, type: 3}
    - time: 0.62
      value: {fileID: 21300000, guid: 2e873af9c2bd6e547a648257733d6609, type: 3}
    - time: 0.64
      value: {fileID: 21300000, guid: 4c5709419a14f05428ec58f1f46e0fdc, type: 3}
    - time: 0.66
      value: {fileID: 21300000, guid: 8c98c915d5869734aad3150ed95a7d73, type: 3}
    - time: 0.68
      value: {fileID: 21300000, guid: a4605d685493de44292c02be60c626e3, type: 3}
    - time: 0.7
      value: {fileID: 21300000, guid: 7c49d4a5a0af1ba4c96542b086d1e0a5, type: 3}
    - time: 0.72
      value: {fileID: 21300000, guid: e7bfadb3e43e0b64f9abfa30b1c4098c, type: 3}
    - time: 0.74
      value: {fileID: 21300000, guid: 305d0807552ed37428c1389e9f5a305f, type: 3}
    - time: 0.76
      value: {fileID: 21300000, guid: 388a2aa2079178448970b71100063343, type: 3}
    - time: 0.78
      value: {fileID: 21300000, guid: 7a3a40c87bddff145af5d5e9926e8be3, type: 3}
    - time: 0.8
      value: {fileID: 21300000, guid: 1d55eb7179729d5439b7f767c0883e1e, type: 3}
    - time: 0.82
      value: {fileID: 21300000, guid: b5eb80e043239614385478f5ca4009c0, type: 3}
    - time: 0.84
      value: {fileID: 21300000, guid: ed1e32ece342eb54c9fe3cd81ca4bab5, type: 3}
    - time: 0.86
      value: {fileID: 21300000, guid: a9257d9f058b5944b8184b42bb1a0463, type: 3}
    - time: 0.88
      value: {fileID: 21300000, guid: 18a80bd4c5304084fb1e79aaea339a89, type: 3}
    - time: 0.9
      value: {fileID: 21300000, guid: d56ad66eae4fa9b4cb2822bf5d94c63a, type: 3}
    - time: 0.92
      value: {fileID: 21300000, guid: bdf2e71ed5cbe94499d7caf59466d202, type: 3}
    - time: 0.94
      value: {fileID: 21300000, guid: 407d644fe655cb344a66dbbd6e85b381, type: 3}
    - time: 0.96
      value: {fileID: 21300000, guid: 2732d9f8b1d36214aa9a09bb4272d215, type: 3}
    - time: 0.98
      value: {fileID: 21300000, guid: 0a492a1d278e8bd40a2d6f099c5acac3, type: 3}
    - time: 1
      value: {fileID: 21300000, guid: ef090a42e10da3e459b8a6a61b1f1ac0, type: 3}
    - time: 1.02
      value: {fileID: 21300000, guid: d9223da86c22ca74094663427497d652, type: 3}
    - time: 1.04
      value: {fileID: 21300000, guid: 5d9b081ea4ae9234e976954e41d235ea, type: 3}
    - time: 1.06
      value: {fileID: 21300000, guid: 8d6f659d4005087449e94170bb0b5f1f, type: 3}
    - time: 1.08
      value: {fileID: 21300000, guid: 5bbe79d7ce53e5b4c88e97fab2e64bb0, type: 3}
    - time: 1.1
      value: {fileID: 21300000, guid: 48cb14ea5670df6408afc36bf7978ee3, type: 3}
    - time: 1.12
      value: {fileID: 21300000, guid: ccb1b5b63ec17bb42aeda8e7f48209f9, type: 3}
    - time: 1.14
      value: {fileID: 21300000, guid: eb2725584d08e314896a8adf787c0003, type: 3}
    - time: 1.16
      value: {fileID: 21300000, guid: bc9c2f61f90027743ad260c4964a74b3, type: 3}
    - time: 1.18
      value: {fileID: 21300000, guid: 71d4a53bcc8f4974bb0c55bc9518ebb1, type: 3}
    - time: 1.2
      value: {fileID: 21300000, guid: 19f2d09655af7da4a9844e2771f38599, type: 3}
    attribute: m_Sprite
    path: 
    classID: 212
    script: {fileID: 0}
  m_SampleRate: 50
  m_WrapMode: 0
  m_Bounds:
    m_Center: {x: 0, y: 0, z: 0}
    m_Extent: {x: 0, y: 0, z: 0}
  m_ClipBindingConstant:
    genericBindings:
    - serializedVersion: 2
      path: 0
      attribute: 0
      script: {fileID: 0}
      typeID: 212
      customType: 23
      isPPtrCurve: 1
    pptrCurveMapping:
    - {fileID: 21300000, guid: 412705819db90d441807e546c0b1d9ae, type: 3}
    - {fileID: 21300000, guid: 5655fc21ee18e5b48adf80f6cae75997, type: 3}
    - {fileID: 21300000, guid: 1410356eb5c534249b301d0d3b6600ae, type: 3}
    - {fileID: 21300000, guid: b263ad76741ff174aade93b0455bb869, type: 3}
    - {fileID: 21300000, guid: 5fe4b4c324d38594db52e7936bbe3bb2, type: 3}
    - {fileID: 21300000, guid: 0c9a8c665e1d2e849aac902b8754857f, type: 3}
    - {fileID: 21300000, guid: ea5d980918e99eb44aeaba2abf3245c3, type: 3}
    - {fileID: 21300000, guid: 2136702942bfe2a4495734dd437d1bf7, type: 3}
    - {fileID: 21300000, guid: f10677e4f1543f04eb3d56ae207654ba, type: 3}
    - {fileID: 21300000, guid: 85bf63ea24ec35a4f9a6f1807f9465d6, type: 3}
    - {fileID: 21300000, guid: 7ed3e79851130454e9f91aead583747a, type: 3}
    - {fileID: 21300000, guid: 1c339024270b6d6469f9c1d5393209e6, type: 3}
    - {fileID: 21300000, guid: ed46dacf4c180504eb467a76443d76c2, type: 3}
    - {fileID: 21300000, guid: b22051058f5c4dc438ccde9686036913, type: 3}
    - {fileID: 21300000, guid: 991049fc7d6820d4b995d9051030f4d7, type: 3}
    - {fileID: 21300000, guid: d781a58249990e04e84dfeab9caf4ecc, type: 3}
    - {fileID: 21300000, guid: 91d0892192a9a9b48b0a45e852b6d1cc, type: 3}
    - {fileID: 21300000, guid: 42ed62e7a91514c4eb753b42b5ede9c6, type: 3}
    - {fileID: 21300000, guid: f7919314b8cfddd4ea9086aaf2c8d8c8, type: 3}
    - {fileID: 21300000, guid: 0b9685b5ac9c7b348b55718af8ef074c, type: 3}
    - {fileID: 21300000, guid: 3d8379888128dc041b3c19a646b48116, type: 3}
    - {fileID: 21300000, guid: 2f376cc23f834304091fa314807370c4, type: 3}
    - {fileID: 21300000, guid: a0636552c9a604946b553e5d71ac1db7, type: 3}
    - {fileID: 21300000, guid: 01e45394d48e49444a59446e20977511, type: 3}
    - {fileID: 21300000, guid: 63b5c60ee33f7d74494510d9a40086f6, type: 3}
    - {fileID: 21300000, guid: 771df66e443ad044a9f63894821b7c3b, type: 3}
    - {fileID: 21300000, guid: 11e20dd12d625ab4399ff04f85e9e7f7, type: 3}
    - {fileID: 21300000, guid: f60e546f53b1d444aab6a53aadeb0e74, type: 3}
    - {fileID: 21300000, guid: b5f06bb88c81fa7419ac35a3098692bd, type: 3}
    - {fileID: 21300000, guid: 13b9c1c3063102841b92149c92b4fd6c, type: 3}
    - {fileID: 21300000, guid: f277f223a83c14b4bb77849416344153, type: 3}
    - {fileID: 21300000, guid: 2e873af9c2bd6e547a648257733d6609, type: 3}
    - {fileID: 21300000, guid: 4c5709419a14f05428ec58f1f46e0fdc, type: 3}
    - {fileID: 21300000, guid: 8c98c915d5869734aad3150ed95a7d73, type: 3}
    - {fileID: 21300000, guid: a4605d685493de44292c02be60c626e3, type: 3}
    - {fileID: 21300000, guid: 7c49d4a5a0af1ba4c96542b086d1e0a5, type: 3}
    - {fileID: 21300000, guid: e7bfadb3e43e0b64f9abfa30b1c4098c, type: 3}
    - {fileID: 21300000, guid: 305d0807552ed37428c1389e9f5a305f, type: 3}
    - {fileID: 21300000, guid: 388a2aa2079178448970b71100063343, type: 3}
    - {fileID: 21300000, guid: 7a3a40c87bddff145af5d5e9926e8be3, type: 3}
    - {fileID: 21300000, guid: 1d55eb7179729d5439b7f767c0883e1e, type: 3}
    - {fileID: 21300000, guid: b5eb80e043239614385478f5ca4009c0, type: 3}
    - {fileID: 21300000, guid: ed1e32ece342eb54c9fe3cd81ca4bab5, type: 3}
    - {fileID: 21300000, guid: a9257d9f058b5944b8184b42bb1a0463, type: 3}
    - {fileID: 21300000, guid: 18a80bd4c5304084fb1e79aaea339a89, type: 3}
    - {fileID: 21300000, guid: d56ad66eae4fa9b4cb2822bf5d94c63a, type: 3}
    - {fileID: 21300000, guid: bdf2e71ed5cbe94499d7caf59466d202, type: 3}
    - {fileID: 21300000, guid: 407d644fe655cb344a66dbbd6e85b381, type: 3}
    - {fileID: 21300000, guid: 2732d9f8b1d36214aa9a09bb4272d215, type: 3}
    - {fileID: 21300000, guid: 0a492a1d278e8bd40a2d6f099c5acac3, type: 3}
    - {fileID: 21300000, guid: ef090a42e10da3e459b8a6a61b1f1ac0, type: 3}
    - {fileID: 21300000, guid: d9223da86c22ca74094663427497d652, type: 3}
    - {fileID: 21300000, guid: 5d9b081ea4ae9234e976954e41d235ea, type: 3}
    - {fileID: 21300000, guid: 8d6f659d4005087449e94170bb0b5f1f, type: 3}
    - {fileID: 21300000, guid: 5bbe79d7ce53e5b4c88e97fab2e64bb0, type: 3}
    - {fileID: 21300000, guid: 48cb14ea5670df6408afc36bf7978ee3, type: 3}
    - {fileID: 21300000, guid: ccb1b5b63ec17bb42aeda8e7f48209f9, type: 3}
    - {fileID: 21300000, guid: eb2725584d08e314896a8adf787c0003, type: 3}
    - {fileID: 21300000, guid: bc9c2f61f90027743ad260c4964a74b3, type: 3}
    - {fileID: 21300000, guid: 71d4a53bcc8f4974bb0c55bc9518ebb1, type: 3}
    - {fileID: 21300000, guid: 19f2d09655af7da4a9844e2771f38599, type: 3}
  m_AnimationClipSettings:
    serializedVersion: 2
    m_AdditiveReferencePoseClip: {fileID: 0}
    m_AdditiveReferencePoseTime: 0
    m_StartTime: 0
    m_StopTime: 1.22
    m_OrientationOffsetY: 0
    m_Level: 0
    m_CycleOffset: 0
    m_HasAdditiveReferencePose: 0
    m_LoopTime: 1
    m_LoopBlend: 0
    m_LoopBlendOrientation: 0
    m_LoopBlendPositionY: 0
    m_LoopBlendPositionXZ: 0
    m_KeepOriginalOrientation: 0
    m_KeepOriginalPositionY: 1
    m_KeepOriginalPositionXZ: 0
    m_HeightFromFeet: 0
    m_Mirror: 0
  m_EditorCurves: []
  m_EulerEditorCurves: []
  m_HasGenericRootTransform: 0
  m_HasMotionFloatCurves: 0
  m_Events: []
