%YAML 1.1
%TAG !u! tag:unity3d.com,2011:
--- !u!74 &7400000
AnimationClip:
  m_ObjectHideFlags: 0
  m_CorrespondingSourceObject: {fileID: 0}
  m_PrefabInstance: {fileID: 0}
  m_PrefabAsset: {fileID: 0}
  m_Name: Idle E
  serializedVersion: 6
  m_Legacy: 0
  m_Compressed: 0
  m_UseHighQualityCurve: 1
  m_RotationCurves: []
  m_CompressedRotationCurves: []
  m_EulerCurves: []
  m_PositionCurves: []
  m_ScaleCurves: []
  m_FloatCurves: []
  m_PPtrCurves:
  - curve:
    - time: 0
      value: {fileID: 21300000, guid: e708ce8231320df4a8f32cf584a8acde, type: 3}
    - time: 0.02
      value: {fileID: 21300000, guid: 8d92d523396172547a7f30f1a89e3220, type: 3}
    - time: 0.04
      value: {fileID: 21300000, guid: 76a1f1c001672384dbd52a782420e04d, type: 3}
    - time: 0.06
      value: {fileID: 21300000, guid: f1ed7383424fa88468beb185a6ddf408, type: 3}
    - time: 0.08
      value: {fileID: 21300000, guid: 2822c672049192f458070cc1b69dbfd3, type: 3}
    - time: 0.1
      value: {fileID: 21300000, guid: b5581345ebb28d94789d43c8ff4b3c2c, type: 3}
    - time: 0.12
      value: {fileID: 21300000, guid: fd0ca969debc8aa4c966dfabc9c83d20, type: 3}
    - time: 0.14
      value: {fileID: 21300000, guid: eb225aa9dcd4abc4fa8f7a7a2457d9e6, type: 3}
    - time: 0.16
      value: {fileID: 21300000, guid: 21967e3fa31bbb64f8bc3cf1f34ff257, type: 3}
    - time: 0.18
      value: {fileID: 21300000, guid: effe7124b269376449f10660dd66552f, type: 3}
    - time: 0.2
      value: {fileID: 21300000, guid: 5300cc9a50edede4891baee9daee2065, type: 3}
    - time: 0.22
      value: {fileID: 21300000, guid: dbe2ca4f43be45e4c9f98b56c3ee60be, type: 3}
    - time: 0.24
      value: {fileID: 21300000, guid: 3db92f80c1fa7114e95bb53ff893efae, type: 3}
    - time: 0.26
      value: {fileID: 21300000, guid: d30369f9aa2aca842b87c48208f4ada0, type: 3}
    - time: 0.28
      value: {fileID: 21300000, guid: ffd753c675c2ea845835cb0a6cee648c, type: 3}
    - time: 0.3
      value: {fileID: 21300000, guid: de923b1d1c6c5dc4b8ae276254ab38fe, type: 3}
    - time: 0.32
      value: {fileID: 21300000, guid: c3e4f7f97a1cee549a9380273564e29c, type: 3}
    - time: 0.34
      value: {fileID: 21300000, guid: bf5eac3459b9c7748bec46c0ebe15459, type: 3}
    - time: 0.36
      value: {fileID: 21300000, guid: 1b3c56783288d1d47ab648bcb42eaee7, type: 3}
    - time: 0.38
      value: {fileID: 21300000, guid: f823a555cfbcf6a469932dbd59bc3b4e, type: 3}
    - time: 0.4
      value: {fileID: 21300000, guid: abe1150727bc81b4e9a8600cbc3f8a18, type: 3}
    - time: 0.42
      value: {fileID: 21300000, guid: 7a0d3322387b94741922e8866c2a6915, type: 3}
    - time: 0.44
      value: {fileID: 21300000, guid: 381e4127e134fd14fa1cf21f20d8dfa4, type: 3}
    - time: 0.46
      value: {fileID: 21300000, guid: 2b1ea5d9c12cafc429f09c4212fe11d8, type: 3}
    - time: 0.48
      value: {fileID: 21300000, guid: a1afcfa3a4f77954fb0bd2a81623168b, type: 3}
    - time: 0.5
      value: {fileID: 21300000, guid: dae39688c6c5302478032efe4ce7ed5f, type: 3}
    - time: 0.52
      value: {fileID: 21300000, guid: 5bd65f8f576cdfa459784afe395c4f32, type: 3}
    - time: 0.54
      value: {fileID: 21300000, guid: 886bd11ea8613f443bea1823bc79e574, type: 3}
    - time: 0.56
      value: {fileID: 21300000, guid: 511e3639622a4fe4f8b4b1b03db45956, type: 3}
    - time: 0.58
      value: {fileID: 21300000, guid: ee847387bbb0ad7419679ccbf5e41979, type: 3}
    - time: 0.6
      value: {fileID: 21300000, guid: 1b1176ec4566cd54fb37ae14bb0509b2, type: 3}
    - time: 0.62
      value: {fileID: 21300000, guid: 3b992b4be3d575e44838de1913146fc7, type: 3}
    - time: 0.64
      value: {fileID: 21300000, guid: 04272813bfc9b66418601525dae72ee1, type: 3}
    - time: 0.66
      value: {fileID: 21300000, guid: c6d2be60d602d6742a5623a75d21af5f, type: 3}
    - time: 0.68
      value: {fileID: 21300000, guid: a34678512adc0934cb8aeac093c95b78, type: 3}
    - time: 0.7
      value: {fileID: 21300000, guid: 19e0640087c422840b94981d4d676935, type: 3}
    - time: 0.72
      value: {fileID: 21300000, guid: aa06138c72b4fc1478bdd95b2a38f06c, type: 3}
    - time: 0.74
      value: {fileID: 21300000, guid: a5eb458903040fc4e9ab5896c6d5cdfa, type: 3}
    - time: 0.76
      value: {fileID: 21300000, guid: e2638fa9a3fa096478f2ea77a9244661, type: 3}
    - time: 0.78
      value: {fileID: 21300000, guid: 9ec8c92c29adfd944a6fc51cc837c8fc, type: 3}
    - time: 0.8
      value: {fileID: 21300000, guid: 5a4fb6cf14f7ae7429e6edddc6719060, type: 3}
    - time: 0.82
      value: {fileID: 21300000, guid: 09910c7e8480b354b9480c712a9db716, type: 3}
    - time: 0.84
      value: {fileID: 21300000, guid: 7604f7d70dac4f14fb188db9fa8e600f, type: 3}
    - time: 0.86
      value: {fileID: 21300000, guid: e9a19f3bdbb658d4abeade35a54e7bc5, type: 3}
    - time: 0.88
      value: {fileID: 21300000, guid: 08f6a03a32ddfc343a22b9c635eca2f3, type: 3}
    - time: 0.9
      value: {fileID: 21300000, guid: 82ca4f93372eee94da7624191242b226, type: 3}
    - time: 0.92
      value: {fileID: 21300000, guid: 87afbf23d43d69e4a9b071c3edbc1ae5, type: 3}
    - time: 0.94
      value: {fileID: 21300000, guid: 83140691e3e77f94fbcefed6bcd33c4a, type: 3}
    - time: 0.96
      value: {fileID: 21300000, guid: da6a3288c4f96d4409b850d85de7802a, type: 3}
    - time: 0.98
      value: {fileID: 21300000, guid: 01011dbc1a1137343beb912351550bbf, type: 3}
    - time: 1
      value: {fileID: 21300000, guid: 6e7b89281adbdef4f9b3bbf161147b33, type: 3}
    - time: 1.02
      value: {fileID: 21300000, guid: 7d7bde1a53e247e47bce85a3366d6001, type: 3}
    - time: 1.04
      value: {fileID: 21300000, guid: aa61de0bc01b7654fbd5fc1070d598a3, type: 3}
    - time: 1.06
      value: {fileID: 21300000, guid: 63977393e76bcbc45a0197f8f4cdc44e, type: 3}
    - time: 1.08
      value: {fileID: 21300000, guid: 34eb269c270b90f458e1b37d9228be13, type: 3}
    - time: 1.1
      value: {fileID: 21300000, guid: 34eb269c270b90f458e1b37d9228be13, type: 3}
    - time: 1.12
      value: {fileID: 21300000, guid: 89a6d0b798813954c85960a18bbf79e7, type: 3}
    - time: 1.14
      value: {fileID: 21300000, guid: 2fbf7a35aa4892946bb2aec33274eae6, type: 3}
    - time: 1.16
      value: {fileID: 21300000, guid: 36cc64b02e4d45e459f4232f75179def, type: 3}
    - time: 1.18
      value: {fileID: 21300000, guid: 07ed3f5ac6149b3408ead8de08f72831, type: 3}
    - time: 1.2
      value: {fileID: 21300000, guid: bd8c4c1006caeb04d8bad63f8aaedbc5, type: 3}
    - time: 1.22
      value: {fileID: 21300000, guid: cae107c1cdb091c458dbaa483f616e2b, type: 3}
    attribute: m_Sprite
    path: 
    classID: 212
    script: {fileID: 0}
  m_SampleRate: 50
  m_WrapMode: 0
  m_Bounds:
    m_Center: {x: 0, y: 0, z: 0}
    m_Extent: {x: 0, y: 0, z: 0}
  m_ClipBindingConstant:
    genericBindings:
    - serializedVersion: 2
      path: 0
      attribute: 0
      script: {fileID: 0}
      typeID: 212
      customType: 23
      isPPtrCurve: 1
    pptrCurveMapping:
    - {fileID: 21300000, guid: e708ce8231320df4a8f32cf584a8acde, type: 3}
    - {fileID: 21300000, guid: 8d92d523396172547a7f30f1a89e3220, type: 3}
    - {fileID: 21300000, guid: 76a1f1c001672384dbd52a782420e04d, type: 3}
    - {fileID: 21300000, guid: f1ed7383424fa88468beb185a6ddf408, type: 3}
    - {fileID: 21300000, guid: 2822c672049192f458070cc1b69dbfd3, type: 3}
    - {fileID: 21300000, guid: b5581345ebb28d94789d43c8ff4b3c2c, type: 3}
    - {fileID: 21300000, guid: fd0ca969debc8aa4c966dfabc9c83d20, type: 3}
    - {fileID: 21300000, guid: eb225aa9dcd4abc4fa8f7a7a2457d9e6, type: 3}
    - {fileID: 21300000, guid: 21967e3fa31bbb64f8bc3cf1f34ff257, type: 3}
    - {fileID: 21300000, guid: effe7124b269376449f10660dd66552f, type: 3}
    - {fileID: 21300000, guid: 5300cc9a50edede4891baee9daee2065, type: 3}
    - {fileID: 21300000, guid: dbe2ca4f43be45e4c9f98b56c3ee60be, type: 3}
    - {fileID: 21300000, guid: 3db92f80c1fa7114e95bb53ff893efae, type: 3}
    - {fileID: 21300000, guid: d30369f9aa2aca842b87c48208f4ada0, type: 3}
    - {fileID: 21300000, guid: ffd753c675c2ea845835cb0a6cee648c, type: 3}
    - {fileID: 21300000, guid: de923b1d1c6c5dc4b8ae276254ab38fe, type: 3}
    - {fileID: 21300000, guid: c3e4f7f97a1cee549a9380273564e29c, type: 3}
    - {fileID: 21300000, guid: bf5eac3459b9c7748bec46c0ebe15459, type: 3}
    - {fileID: 21300000, guid: 1b3c56783288d1d47ab648bcb42eaee7, type: 3}
    - {fileID: 21300000, guid: f823a555cfbcf6a469932dbd59bc3b4e, type: 3}
    - {fileID: 21300000, guid: abe1150727bc81b4e9a8600cbc3f8a18, type: 3}
    - {fileID: 21300000, guid: 7a0d3322387b94741922e8866c2a6915, type: 3}
    - {fileID: 21300000, guid: 381e4127e134fd14fa1cf21f20d8dfa4, type: 3}
    - {fileID: 21300000, guid: 2b1ea5d9c12cafc429f09c4212fe11d8, type: 3}
    - {fileID: 21300000, guid: a1afcfa3a4f77954fb0bd2a81623168b, type: 3}
    - {fileID: 21300000, guid: dae39688c6c5302478032efe4ce7ed5f, type: 3}
    - {fileID: 21300000, guid: 5bd65f8f576cdfa459784afe395c4f32, type: 3}
    - {fileID: 21300000, guid: 886bd11ea8613f443bea1823bc79e574, type: 3}
    - {fileID: 21300000, guid: 511e3639622a4fe4f8b4b1b03db45956, type: 3}
    - {fileID: 21300000, guid: ee847387bbb0ad7419679ccbf5e41979, type: 3}
    - {fileID: 21300000, guid: 1b1176ec4566cd54fb37ae14bb0509b2, type: 3}
    - {fileID: 21300000, guid: 3b992b4be3d575e44838de1913146fc7, type: 3}
    - {fileID: 21300000, guid: 04272813bfc9b66418601525dae72ee1, type: 3}
    - {fileID: 21300000, guid: c6d2be60d602d6742a5623a75d21af5f, type: 3}
    - {fileID: 21300000, guid: a34678512adc0934cb8aeac093c95b78, type: 3}
    - {fileID: 21300000, guid: 19e0640087c422840b94981d4d676935, type: 3}
    - {fileID: 21300000, guid: aa06138c72b4fc1478bdd95b2a38f06c, type: 3}
    - {fileID: 21300000, guid: a5eb458903040fc4e9ab5896c6d5cdfa, type: 3}
    - {fileID: 21300000, guid: e2638fa9a3fa096478f2ea77a9244661, type: 3}
    - {fileID: 21300000, guid: 9ec8c92c29adfd944a6fc51cc837c8fc, type: 3}
    - {fileID: 21300000, guid: 5a4fb6cf14f7ae7429e6edddc6719060, type: 3}
    - {fileID: 21300000, guid: 09910c7e8480b354b9480c712a9db716, type: 3}
    - {fileID: 21300000, guid: 7604f7d70dac4f14fb188db9fa8e600f, type: 3}
    - {fileID: 21300000, guid: e9a19f3bdbb658d4abeade35a54e7bc5, type: 3}
    - {fileID: 21300000, guid: 08f6a03a32ddfc343a22b9c635eca2f3, type: 3}
    - {fileID: 21300000, guid: 82ca4f93372eee94da7624191242b226, type: 3}
    - {fileID: 21300000, guid: 87afbf23d43d69e4a9b071c3edbc1ae5, type: 3}
    - {fileID: 21300000, guid: 83140691e3e77f94fbcefed6bcd33c4a, type: 3}
    - {fileID: 21300000, guid: da6a3288c4f96d4409b850d85de7802a, type: 3}
    - {fileID: 21300000, guid: 01011dbc1a1137343beb912351550bbf, type: 3}
    - {fileID: 21300000, guid: 6e7b89281adbdef4f9b3bbf161147b33, type: 3}
    - {fileID: 21300000, guid: 7d7bde1a53e247e47bce85a3366d6001, type: 3}
    - {fileID: 21300000, guid: aa61de0bc01b7654fbd5fc1070d598a3, type: 3}
    - {fileID: 21300000, guid: 63977393e76bcbc45a0197f8f4cdc44e, type: 3}
    - {fileID: 21300000, guid: 34eb269c270b90f458e1b37d9228be13, type: 3}
    - {fileID: 21300000, guid: 34eb269c270b90f458e1b37d9228be13, type: 3}
    - {fileID: 21300000, guid: 89a6d0b798813954c85960a18bbf79e7, type: 3}
    - {fileID: 21300000, guid: 2fbf7a35aa4892946bb2aec33274eae6, type: 3}
    - {fileID: 21300000, guid: 36cc64b02e4d45e459f4232f75179def, type: 3}
    - {fileID: 21300000, guid: 07ed3f5ac6149b3408ead8de08f72831, type: 3}
    - {fileID: 21300000, guid: bd8c4c1006caeb04d8bad63f8aaedbc5, type: 3}
    - {fileID: 21300000, guid: cae107c1cdb091c458dbaa483f616e2b, type: 3}
  m_AnimationClipSettings:
    serializedVersion: 2
    m_AdditiveReferencePoseClip: {fileID: 0}
    m_AdditiveReferencePoseTime: 0
    m_StartTime: 0
    m_StopTime: 1.24
    m_OrientationOffsetY: 0
    m_Level: 0
    m_CycleOffset: 0
    m_HasAdditiveReferencePose: 0
    m_LoopTime: 1
    m_LoopBlend: 0
    m_LoopBlendOrientation: 0
    m_LoopBlendPositionY: 0
    m_LoopBlendPositionXZ: 0
    m_KeepOriginalOrientation: 0
    m_KeepOriginalPositionY: 1
    m_KeepOriginalPositionXZ: 0
    m_HeightFromFeet: 0
    m_Mirror: 0
  m_EditorCurves: []
  m_EulerEditorCurves: []
  m_HasGenericRootTransform: 0
  m_HasMotionFloatCurves: 0
  m_Events: []
