%YAML 1.1
%TAG !u! tag:unity3d.com,2011:
--- !u!74 &7400000
AnimationClip:
  m_ObjectHideFlags: 0
  m_CorrespondingSourceObject: {fileID: 0}
  m_PrefabInstance: {fileID: 0}
  m_PrefabAsset: {fileID: 0}
  m_Name: Walk SE
  serializedVersion: 6
  m_Legacy: 0
  m_Compressed: 0
  m_UseHighQualityCurve: 1
  m_RotationCurves: []
  m_CompressedRotationCurves: []
  m_EulerCurves: []
  m_PositionCurves: []
  m_ScaleCurves: []
  m_FloatCurves: []
  m_PPtrCurves:
  - curve:
    - time: 0
      value: {fileID: 21300000, guid: 76e845d5448105741bc7c390f5b3cc5b, type: 3}
    - time: 0.083333336
      value: {fileID: 21300000, guid: 8acbcfe56ab5a1b498b55b67e4dd8d4b, type: 3}
    - time: 0.16666667
      value: {fileID: 21300000, guid: 670b0d75dbf4eb649b9f5a646e2c11ba, type: 3}
    - time: 0.25
      value: {fileID: 21300000, guid: 458f7eb1c7431b54e83ea788114944a3, type: 3}
    - time: 0.33333334
      value: {fileID: 21300000, guid: 9b2fd1b83be69094e8c47ed75ba158b7, type: 3}
    - time: 0.41666666
      value: {fileID: 21300000, guid: 071159b367747b94da544398b999caaf, type: 3}
    - time: 0.5
      value: {fileID: 21300000, guid: affcb7d83eabc4a438f1d09a5d3d4d33, type: 3}
    - time: 0.5833333
      value: {fileID: 21300000, guid: 53cffd297ff870c4f81f9b3098aefece, type: 3}
    - time: 0.6666667
      value: {fileID: 21300000, guid: e4c72d576ff2e21408f175fc7f4e4aaf, type: 3}
    - time: 0.75
      value: {fileID: 21300000, guid: 1795666b7c46d4a46ac06534a41c8b9c, type: 3}
    - time: 0.8333333
      value: {fileID: 21300000, guid: e96fa25687a450c4098316c3d1d1cd5a, type: 3}
    attribute: m_Sprite
    path: 
    classID: 212
    script: {fileID: 0}
  m_SampleRate: 12
  m_WrapMode: 0
  m_Bounds:
    m_Center: {x: 0, y: 0, z: 0}
    m_Extent: {x: 0, y: 0, z: 0}
  m_ClipBindingConstant:
    genericBindings:
    - serializedVersion: 2
      path: 0
      attribute: 0
      script: {fileID: 0}
      typeID: 212
      customType: 23
      isPPtrCurve: 1
    pptrCurveMapping:
    - {fileID: 21300000, guid: 76e845d5448105741bc7c390f5b3cc5b, type: 3}
    - {fileID: 21300000, guid: 8acbcfe56ab5a1b498b55b67e4dd8d4b, type: 3}
    - {fileID: 21300000, guid: 670b0d75dbf4eb649b9f5a646e2c11ba, type: 3}
    - {fileID: 21300000, guid: 458f7eb1c7431b54e83ea788114944a3, type: 3}
    - {fileID: 21300000, guid: 9b2fd1b83be69094e8c47ed75ba158b7, type: 3}
    - {fileID: 21300000, guid: 071159b367747b94da544398b999caaf, type: 3}
    - {fileID: 21300000, guid: affcb7d83eabc4a438f1d09a5d3d4d33, type: 3}
    - {fileID: 21300000, guid: 53cffd297ff870c4f81f9b3098aefece, type: 3}
    - {fileID: 21300000, guid: e4c72d576ff2e21408f175fc7f4e4aaf, type: 3}
    - {fileID: 21300000, guid: 1795666b7c46d4a46ac06534a41c8b9c, type: 3}
    - {fileID: 21300000, guid: e96fa25687a450c4098316c3d1d1cd5a, type: 3}
  m_AnimationClipSettings:
    serializedVersion: 2
    m_AdditiveReferencePoseClip: {fileID: 0}
    m_AdditiveReferencePoseTime: 0
    m_StartTime: 0
    m_StopTime: 0.9166666
    m_OrientationOffsetY: 0
    m_Level: 0
    m_CycleOffset: 0
    m_HasAdditiveReferencePose: 0
    m_LoopTime: 1
    m_LoopBlend: 0
    m_LoopBlendOrientation: 0
    m_LoopBlendPositionY: 0
    m_LoopBlendPositionXZ: 0
    m_KeepOriginalOrientation: 0
    m_KeepOriginalPositionY: 1
    m_KeepOriginalPositionXZ: 0
    m_HeightFromFeet: 0
    m_Mirror: 0
  m_EditorCurves: []
  m_EulerEditorCurves: []
  m_HasGenericRootTransform: 0
  m_HasMotionFloatCurves: 0
  m_Events: []
