%YAML 1.1
%TAG !u! tag:unity3d.com,2011:
--- !u!74 &7400000
AnimationClip:
  m_ObjectHideFlags: 0
  m_CorrespondingSourceObject: {fileID: 0}
  m_PrefabInstance: {fileID: 0}
  m_PrefabAsset: {fileID: 0}
  m_Name: walk E
  serializedVersion: 6
  m_Legacy: 0
  m_Compressed: 0
  m_UseHighQualityCurve: 1
  m_RotationCurves: []
  m_CompressedRotationCurves: []
  m_EulerCurves: []
  m_PositionCurves: []
  m_ScaleCurves: []
  m_FloatCurves: []
  m_PPtrCurves:
  - curve:
    - time: 0
      value: {fileID: 21300000, guid: b0e50397a6a2ece45a288fc73ff2cffc, type: 3}
    - time: 0.083333336
      value: {fileID: 21300000, guid: 3bfacde1d214d4946977576c4754e2d4, type: 3}
    - time: 0.16666667
      value: {fileID: 21300000, guid: 5413900ae7e6eb04a814c9ab94b79bc6, type: 3}
    - time: 0.25
      value: {fileID: 21300000, guid: 087586e7eedc5a345ab5a454c4f9dfea, type: 3}
    - time: 0.33333334
      value: {fileID: 21300000, guid: f5d13adb8deb32c4b8d9f02d444785e3, type: 3}
    - time: 0.41666666
      value: {fileID: 21300000, guid: c5cdb8a8117adc941a6d9e6f23feb2e0, type: 3}
    - time: 0.5
      value: {fileID: 21300000, guid: 7c12380275022ce4a8729c0de0ec2113, type: 3}
    - time: 0.5833333
      value: {fileID: 21300000, guid: 16edc11072bb25649ac425ee7658f467, type: 3}
    - time: 0.6666667
      value: {fileID: 21300000, guid: 4eb5d9bef0774c84bb14d0c20192a5ff, type: 3}
    - time: 0.75
      value: {fileID: 21300000, guid: 76aa3b913a8c1e0478bddb2bb42377c6, type: 3}
    - time: 0.8333333
      value: {fileID: 21300000, guid: 7fd86a2bc9847044997229f95bc25252, type: 3}
    - time: 0.9166667
      value: {fileID: 21300000, guid: 2f558e421dc28f14e895dd01f409d566, type: 3}
    attribute: m_Sprite
    path: 
    classID: 212
    script: {fileID: 0}
  m_SampleRate: 12
  m_WrapMode: 0
  m_Bounds:
    m_Center: {x: 0, y: 0, z: 0}
    m_Extent: {x: 0, y: 0, z: 0}
  m_ClipBindingConstant:
    genericBindings:
    - serializedVersion: 2
      path: 0
      attribute: 0
      script: {fileID: 0}
      typeID: 212
      customType: 23
      isPPtrCurve: 1
    pptrCurveMapping:
    - {fileID: 21300000, guid: b0e50397a6a2ece45a288fc73ff2cffc, type: 3}
    - {fileID: 21300000, guid: 3bfacde1d214d4946977576c4754e2d4, type: 3}
    - {fileID: 21300000, guid: 5413900ae7e6eb04a814c9ab94b79bc6, type: 3}
    - {fileID: 21300000, guid: 087586e7eedc5a345ab5a454c4f9dfea, type: 3}
    - {fileID: 21300000, guid: f5d13adb8deb32c4b8d9f02d444785e3, type: 3}
    - {fileID: 21300000, guid: c5cdb8a8117adc941a6d9e6f23feb2e0, type: 3}
    - {fileID: 21300000, guid: 7c12380275022ce4a8729c0de0ec2113, type: 3}
    - {fileID: 21300000, guid: 16edc11072bb25649ac425ee7658f467, type: 3}
    - {fileID: 21300000, guid: 4eb5d9bef0774c84bb14d0c20192a5ff, type: 3}
    - {fileID: 21300000, guid: 76aa3b913a8c1e0478bddb2bb42377c6, type: 3}
    - {fileID: 21300000, guid: 7fd86a2bc9847044997229f95bc25252, type: 3}
    - {fileID: 21300000, guid: 2f558e421dc28f14e895dd01f409d566, type: 3}
  m_AnimationClipSettings:
    serializedVersion: 2
    m_AdditiveReferencePoseClip: {fileID: 0}
    m_AdditiveReferencePoseTime: 0
    m_StartTime: 0
    m_StopTime: 1
    m_OrientationOffsetY: 0
    m_Level: 0
    m_CycleOffset: 0
    m_HasAdditiveReferencePose: 0
    m_LoopTime: 1
    m_LoopBlend: 0
    m_LoopBlendOrientation: 0
    m_LoopBlendPositionY: 0
    m_LoopBlendPositionXZ: 0
    m_KeepOriginalOrientation: 0
    m_KeepOriginalPositionY: 1
    m_KeepOriginalPositionXZ: 0
    m_HeightFromFeet: 0
    m_Mirror: 0
  m_EditorCurves: []
  m_EulerEditorCurves: []
  m_HasGenericRootTransform: 0
  m_HasMotionFloatCurves: 0
  m_Events: []
