%YAML 1.1
%TAG !u! tag:unity3d.com,2011:
--- !u!74 &7400000
AnimationClip:
  m_ObjectHideFlags: 0
  m_CorrespondingSourceObject: {fileID: 0}
  m_PrefabInstance: {fileID: 0}
  m_PrefabAsset: {fileID: 0}
  m_Name: walk NW
  serializedVersion: 6
  m_Legacy: 0
  m_Compressed: 0
  m_UseHighQualityCurve: 1
  m_RotationCurves: []
  m_CompressedRotationCurves: []
  m_EulerCurves: []
  m_PositionCurves: []
  m_ScaleCurves: []
  m_FloatCurves: []
  m_PPtrCurves:
  - curve:
    - time: 0
      value: {fileID: 21300000, guid: 15fa41150054a514fae9e63357218817, type: 3}
    - time: 0.083333336
      value: {fileID: 21300000, guid: b46ac063865330e48a0f2f254f954269, type: 3}
    - time: 0.16666667
      value: {fileID: 21300000, guid: 4a41d67839b95db4db8459f4780d64a4, type: 3}
    - time: 0.25
      value: {fileID: 21300000, guid: 65ee68f5da9a4864996f145e616d5906, type: 3}
    - time: 0.33333334
      value: {fileID: 21300000, guid: b7dac1f228ab2114b965232269ac75ce, type: 3}
    - time: 0.41666666
      value: {fileID: 21300000, guid: e6a009c5c2424b34ab2d4afdf977c96f, type: 3}
    - time: 0.5
      value: {fileID: 21300000, guid: d9847baaf35efde49a77fe155fac2502, type: 3}
    - time: 0.5833333
      value: {fileID: 21300000, guid: d915df106b52970499d36d4c8e6b7613, type: 3}
    - time: 0.6666667
      value: {fileID: 21300000, guid: 0ea170bf1b9b1c243b83106010a35960, type: 3}
    - time: 0.75
      value: {fileID: 21300000, guid: 1d3e06bf0be561b45850b85036037a62, type: 3}
    - time: 0.8333333
      value: {fileID: 21300000, guid: 869b88c19fbf53249b05d89fcae2507a, type: 3}
    attribute: m_Sprite
    path: 
    classID: 212
    script: {fileID: 0}
  m_SampleRate: 12
  m_WrapMode: 0
  m_Bounds:
    m_Center: {x: 0, y: 0, z: 0}
    m_Extent: {x: 0, y: 0, z: 0}
  m_ClipBindingConstant:
    genericBindings:
    - serializedVersion: 2
      path: 0
      attribute: 0
      script: {fileID: 0}
      typeID: 212
      customType: 23
      isPPtrCurve: 1
    pptrCurveMapping:
    - {fileID: 21300000, guid: 15fa41150054a514fae9e63357218817, type: 3}
    - {fileID: 21300000, guid: b46ac063865330e48a0f2f254f954269, type: 3}
    - {fileID: 21300000, guid: 4a41d67839b95db4db8459f4780d64a4, type: 3}
    - {fileID: 21300000, guid: 65ee68f5da9a4864996f145e616d5906, type: 3}
    - {fileID: 21300000, guid: b7dac1f228ab2114b965232269ac75ce, type: 3}
    - {fileID: 21300000, guid: e6a009c5c2424b34ab2d4afdf977c96f, type: 3}
    - {fileID: 21300000, guid: d9847baaf35efde49a77fe155fac2502, type: 3}
    - {fileID: 21300000, guid: d915df106b52970499d36d4c8e6b7613, type: 3}
    - {fileID: 21300000, guid: 0ea170bf1b9b1c243b83106010a35960, type: 3}
    - {fileID: 21300000, guid: 1d3e06bf0be561b45850b85036037a62, type: 3}
    - {fileID: 21300000, guid: 869b88c19fbf53249b05d89fcae2507a, type: 3}
  m_AnimationClipSettings:
    serializedVersion: 2
    m_AdditiveReferencePoseClip: {fileID: 0}
    m_AdditiveReferencePoseTime: 0
    m_StartTime: 0
    m_StopTime: 0.9166666
    m_OrientationOffsetY: 0
    m_Level: 0
    m_CycleOffset: 0
    m_HasAdditiveReferencePose: 0
    m_LoopTime: 1
    m_LoopBlend: 0
    m_LoopBlendOrientation: 0
    m_LoopBlendPositionY: 0
    m_LoopBlendPositionXZ: 0
    m_KeepOriginalOrientation: 0
    m_KeepOriginalPositionY: 1
    m_KeepOriginalPositionXZ: 0
    m_HeightFromFeet: 0
    m_Mirror: 0
  m_EditorCurves: []
  m_EulerEditorCurves: []
  m_HasGenericRootTransform: 0
  m_HasMotionFloatCurves: 0
  m_Events: []
