%YAML 1.1
%TAG !u! tag:unity3d.com,2011:
--- !u!74 &7400000
AnimationClip:
  m_ObjectHideFlags: 0
  m_CorrespondingSourceObject: {fileID: 0}
  m_PrefabInstance: {fileID: 0}
  m_PrefabAsset: {fileID: 0}
  m_Name: Death_N
  serializedVersion: 6
  m_Legacy: 0
  m_Compressed: 0
  m_UseHighQualityCurve: 1
  m_RotationCurves: []
  m_CompressedRotationCurves: []
  m_EulerCurves: []
  m_PositionCurves: []
  m_ScaleCurves: []
  m_FloatCurves: []
  m_PPtrCurves:
  - curve:
    - time: 0
      value: {fileID: 21300000, guid: 67b4f1f6c84c538488b87b398619d1cb, type: 3}
    - time: 0.083333336
      value: {fileID: 21300000, guid: a5ca728927a1cb541857686b77cee1df, type: 3}
    - time: 0.16666667
      value: {fileID: 21300000, guid: 7a7fc04930f3ac5449940a248f226777, type: 3}
    - time: 0.25
      value: {fileID: 21300000, guid: c1e7f4d673c673f4ca278eccd0eea27f, type: 3}
    - time: 0.33333334
      value: {fileID: 21300000, guid: 7e20bf81ddff32d42a7b7786e5ec87f8, type: 3}
    - time: 0.41666666
      value: {fileID: 21300000, guid: 407059a9bf8854644ba5db420e74c6aa, type: 3}
    - time: 0.5
      value: {fileID: 21300000, guid: 6f884128e9314de4c842a51da9daf5f9, type: 3}
    - time: 0.5833333
      value: {fileID: 21300000, guid: 0c784905354d14d42b216392233927d4, type: 3}
    - time: 0.6666667
      value: {fileID: 21300000, guid: 055d94f09f3b3e2409d527491e17e39f, type: 3}
    - time: 0.75
      value: {fileID: 21300000, guid: fb91705426de9a24d82dc271307a2d47, type: 3}
    - time: 0.8333333
      value: {fileID: 21300000, guid: 9c53431e90a59924481fb4e04f8918c2, type: 3}
    - time: 0.9166667
      value: {fileID: 21300000, guid: 3c7f68b451460fb4782806ebc6d2c92e, type: 3}
    - time: 1
      value: {fileID: 21300000, guid: 4922ccb31d7650440a9bc4c722d64812, type: 3}
    - time: 1.0833334
      value: {fileID: 21300000, guid: 3001b87f6f265574a96b83345c643244, type: 3}
    - time: 1.1666666
      value: {fileID: 21300000, guid: 8d4edfc09a3e6a84798431c1e398a5df, type: 3}
    - time: 1.25
      value: {fileID: 21300000, guid: 1f46c50644dc9de4096363a03337eb52, type: 3}
    - time: 1.3333334
      value: {fileID: 21300000, guid: 224faf4a868e54f4bb78f54a5f1b974d, type: 3}
    - time: 1.4166666
      value: {fileID: 21300000, guid: 0ff098e582da51943aafbaa89f07b117, type: 3}
    - time: 1.5
      value: {fileID: 21300000, guid: f364b2fd9f5a3934dbdc5000a210c46f, type: 3}
    - time: 1.5833334
      value: {fileID: 21300000, guid: 42b042e3be8862e4dbc13de8f3c04572, type: 3}
    attribute: m_Sprite
    path: 
    classID: 212
    script: {fileID: 0}
  m_SampleRate: 12
  m_WrapMode: 0
  m_Bounds:
    m_Center: {x: 0, y: 0, z: 0}
    m_Extent: {x: 0, y: 0, z: 0}
  m_ClipBindingConstant:
    genericBindings:
    - serializedVersion: 2
      path: 0
      attribute: 0
      script: {fileID: 0}
      typeID: 212
      customType: 23
      isPPtrCurve: 1
    pptrCurveMapping:
    - {fileID: 21300000, guid: 67b4f1f6c84c538488b87b398619d1cb, type: 3}
    - {fileID: 21300000, guid: a5ca728927a1cb541857686b77cee1df, type: 3}
    - {fileID: 21300000, guid: 7a7fc04930f3ac5449940a248f226777, type: 3}
    - {fileID: 21300000, guid: c1e7f4d673c673f4ca278eccd0eea27f, type: 3}
    - {fileID: 21300000, guid: 7e20bf81ddff32d42a7b7786e5ec87f8, type: 3}
    - {fileID: 21300000, guid: 407059a9bf8854644ba5db420e74c6aa, type: 3}
    - {fileID: 21300000, guid: 6f884128e9314de4c842a51da9daf5f9, type: 3}
    - {fileID: 21300000, guid: 0c784905354d14d42b216392233927d4, type: 3}
    - {fileID: 21300000, guid: 055d94f09f3b3e2409d527491e17e39f, type: 3}
    - {fileID: 21300000, guid: fb91705426de9a24d82dc271307a2d47, type: 3}
    - {fileID: 21300000, guid: 9c53431e90a59924481fb4e04f8918c2, type: 3}
    - {fileID: 21300000, guid: 3c7f68b451460fb4782806ebc6d2c92e, type: 3}
    - {fileID: 21300000, guid: 4922ccb31d7650440a9bc4c722d64812, type: 3}
    - {fileID: 21300000, guid: 3001b87f6f265574a96b83345c643244, type: 3}
    - {fileID: 21300000, guid: 8d4edfc09a3e6a84798431c1e398a5df, type: 3}
    - {fileID: 21300000, guid: 1f46c50644dc9de4096363a03337eb52, type: 3}
    - {fileID: 21300000, guid: 224faf4a868e54f4bb78f54a5f1b974d, type: 3}
    - {fileID: 21300000, guid: 0ff098e582da51943aafbaa89f07b117, type: 3}
    - {fileID: 21300000, guid: f364b2fd9f5a3934dbdc5000a210c46f, type: 3}
    - {fileID: 21300000, guid: 42b042e3be8862e4dbc13de8f3c04572, type: 3}
  m_AnimationClipSettings:
    serializedVersion: 2
    m_AdditiveReferencePoseClip: {fileID: 0}
    m_AdditiveReferencePoseTime: 0
    m_StartTime: 0
    m_StopTime: 1.6666667
    m_OrientationOffsetY: 0
    m_Level: 0
    m_CycleOffset: 0
    m_HasAdditiveReferencePose: 0
    m_LoopTime: 0
    m_LoopBlend: 0
    m_LoopBlendOrientation: 0
    m_LoopBlendPositionY: 0
    m_LoopBlendPositionXZ: 0
    m_KeepOriginalOrientation: 0
    m_KeepOriginalPositionY: 1
    m_KeepOriginalPositionXZ: 0
    m_HeightFromFeet: 0
    m_Mirror: 0
  m_EditorCurves: []
  m_EulerEditorCurves: []
  m_HasGenericRootTransform: 0
  m_HasMotionFloatCurves: 0
  m_Events:
  - time: 1.5833334
    functionName: DestroySolider
    data: 
    objectReferenceParameter: {fileID: 0}
    floatParameter: 0
    intParameter: 0
    messageOptions: 0
