%YAML 1.1
%TAG !u! tag:unity3d.com,2011:
--- !u!74 &7400000
AnimationClip:
  m_ObjectHideFlags: 0
  m_CorrespondingSourceObject: {fileID: 0}
  m_PrefabInstance: {fileID: 0}
  m_PrefabAsset: {fileID: 0}
  m_Name: Death_W
  serializedVersion: 6
  m_Legacy: 0
  m_Compressed: 0
  m_UseHighQualityCurve: 1
  m_RotationCurves: []
  m_CompressedRotationCurves: []
  m_EulerCurves: []
  m_PositionCurves: []
  m_ScaleCurves: []
  m_FloatCurves: []
  m_PPtrCurves:
  - curve:
    - time: 0
      value: {fileID: 21300000, guid: 3e49ca8980c8ab44c9ce522516b10933, type: 3}
    - time: 0.083333336
      value: {fileID: 21300000, guid: b30f89545618e944488ca5da0791a8bc, type: 3}
    - time: 0.16666667
      value: {fileID: 21300000, guid: b98ab64237c96ce4db4292715171a04d, type: 3}
    - time: 0.25
      value: {fileID: 21300000, guid: 59e8208e7dd36564f9ee6b91189eceb0, type: 3}
    - time: 0.33333334
      value: {fileID: 21300000, guid: 83694e18b4c50f14390ee56f490da5dc, type: 3}
    - time: 0.41666666
      value: {fileID: 21300000, guid: e662bbeafa732c64aa018c1b3b768c3c, type: 3}
    - time: 0.5
      value: {fileID: 21300000, guid: aad4d57024795a84e95d8a01c539ab8f, type: 3}
    - time: 0.5833333
      value: {fileID: 21300000, guid: 7622c5ccaf950de41872a51fe5c31bcc, type: 3}
    - time: 0.6666667
      value: {fileID: 21300000, guid: 0295c94095e76d44ea5a36d670c19edb, type: 3}
    - time: 0.75
      value: {fileID: 21300000, guid: a640dfb723c3c5047a3698bad5e391af, type: 3}
    - time: 0.8333333
      value: {fileID: 21300000, guid: 31fa5a33642705046bc6c91dbdb7f66a, type: 3}
    - time: 0.9166667
      value: {fileID: 21300000, guid: ee1f102f2afba5843b23276b1d81dde0, type: 3}
    - time: 1
      value: {fileID: 21300000, guid: ecaecbedf98c3f64892fcd6ca72558d5, type: 3}
    - time: 1.0833334
      value: {fileID: 21300000, guid: 1749a5491be316b41b5ea1c786fa2a81, type: 3}
    - time: 1.1666666
      value: {fileID: 21300000, guid: 7ba27166930ed1140a8a6f785abb29aa, type: 3}
    - time: 1.25
      value: {fileID: 21300000, guid: 391b4646f76ca0943800340a704f3273, type: 3}
    - time: 1.3333334
      value: {fileID: 21300000, guid: 12251a4ca6531ee4c9e3651f02e314ef, type: 3}
    - time: 1.4166666
      value: {fileID: 21300000, guid: 2a2b8c5dfae282e44984b658462d9762, type: 3}
    - time: 1.5
      value: {fileID: 21300000, guid: d9b194009ce7c6f4083057a2f772b14e, type: 3}
    - time: 1.5833334
      value: {fileID: 21300000, guid: 2cb60da7a08f8734298ded8fa5ddf882, type: 3}
    attribute: m_Sprite
    path: 
    classID: 212
    script: {fileID: 0}
  m_SampleRate: 12
  m_WrapMode: 0
  m_Bounds:
    m_Center: {x: 0, y: 0, z: 0}
    m_Extent: {x: 0, y: 0, z: 0}
  m_ClipBindingConstant:
    genericBindings:
    - serializedVersion: 2
      path: 0
      attribute: 0
      script: {fileID: 0}
      typeID: 212
      customType: 23
      isPPtrCurve: 1
    pptrCurveMapping:
    - {fileID: 21300000, guid: 3e49ca8980c8ab44c9ce522516b10933, type: 3}
    - {fileID: 21300000, guid: b30f89545618e944488ca5da0791a8bc, type: 3}
    - {fileID: 21300000, guid: b98ab64237c96ce4db4292715171a04d, type: 3}
    - {fileID: 21300000, guid: 59e8208e7dd36564f9ee6b91189eceb0, type: 3}
    - {fileID: 21300000, guid: 83694e18b4c50f14390ee56f490da5dc, type: 3}
    - {fileID: 21300000, guid: e662bbeafa732c64aa018c1b3b768c3c, type: 3}
    - {fileID: 21300000, guid: aad4d57024795a84e95d8a01c539ab8f, type: 3}
    - {fileID: 21300000, guid: 7622c5ccaf950de41872a51fe5c31bcc, type: 3}
    - {fileID: 21300000, guid: 0295c94095e76d44ea5a36d670c19edb, type: 3}
    - {fileID: 21300000, guid: a640dfb723c3c5047a3698bad5e391af, type: 3}
    - {fileID: 21300000, guid: 31fa5a33642705046bc6c91dbdb7f66a, type: 3}
    - {fileID: 21300000, guid: ee1f102f2afba5843b23276b1d81dde0, type: 3}
    - {fileID: 21300000, guid: ecaecbedf98c3f64892fcd6ca72558d5, type: 3}
    - {fileID: 21300000, guid: 1749a5491be316b41b5ea1c786fa2a81, type: 3}
    - {fileID: 21300000, guid: 7ba27166930ed1140a8a6f785abb29aa, type: 3}
    - {fileID: 21300000, guid: 391b4646f76ca0943800340a704f3273, type: 3}
    - {fileID: 21300000, guid: 12251a4ca6531ee4c9e3651f02e314ef, type: 3}
    - {fileID: 21300000, guid: 2a2b8c5dfae282e44984b658462d9762, type: 3}
    - {fileID: 21300000, guid: d9b194009ce7c6f4083057a2f772b14e, type: 3}
    - {fileID: 21300000, guid: 2cb60da7a08f8734298ded8fa5ddf882, type: 3}
  m_AnimationClipSettings:
    serializedVersion: 2
    m_AdditiveReferencePoseClip: {fileID: 0}
    m_AdditiveReferencePoseTime: 0
    m_StartTime: 0
    m_StopTime: 1.6666667
    m_OrientationOffsetY: 0
    m_Level: 0
    m_CycleOffset: 0
    m_HasAdditiveReferencePose: 0
    m_LoopTime: 0
    m_LoopBlend: 0
    m_LoopBlendOrientation: 0
    m_LoopBlendPositionY: 0
    m_LoopBlendPositionXZ: 0
    m_KeepOriginalOrientation: 0
    m_KeepOriginalPositionY: 1
    m_KeepOriginalPositionXZ: 0
    m_HeightFromFeet: 0
    m_Mirror: 0
  m_EditorCurves: []
  m_EulerEditorCurves: []
  m_HasGenericRootTransform: 0
  m_HasMotionFloatCurves: 0
  m_Events:
  - time: 1.5833334
    functionName: DestroySolider
    data: 
    objectReferenceParameter: {fileID: 0}
    floatParameter: 0
    intParameter: 0
    messageOptions: 0
