%YAML 1.1
%TAG !u! tag:unity3d.com,2011:
--- !u!74 &7400000
AnimationClip:
  m_ObjectHideFlags: 0
  m_CorrespondingSourceObject: {fileID: 0}
  m_PrefabInstance: {fileID: 0}
  m_PrefabAsset: {fileID: 0}
  m_Name: Blue_Animations
  serializedVersion: 6
  m_Legacy: 0
  m_Compressed: 0
  m_UseHighQualityCurve: 1
  m_RotationCurves: []
  m_CompressedRotationCurves: []
  m_EulerCurves: []
  m_PositionCurves: []
  m_ScaleCurves: []
  m_FloatCurves: []
  m_PPtrCurves:
  - curve:
    - time: 0
      value: {fileID: 21300000, guid: 1bc8dd75d0db55f439c780f94b323efc, type: 3}
    - time: 0.083333336
      value: {fileID: 21300000, guid: 6ab1481a5e6ee28449a373ad7be8113b, type: 3}
    - time: 0.16666667
      value: {fileID: 21300000, guid: 19ad5ab9841852e4ebb44f03d879e58c, type: 3}
    - time: 0.25
      value: {fileID: 21300000, guid: e6e32601f27a19e4891f47209d96c8b9, type: 3}
    - time: 0.33333334
      value: {fileID: 21300000, guid: 174f08eb3b520dc448df6d2abe17b322, type: 3}
    - time: 0.41666666
      value: {fileID: 21300000, guid: b49fd401b2d27cb4a93b6c79564abaf5, type: 3}
    - time: 0.5
      value: {fileID: 21300000, guid: 93d81f0f663c8294ca249e618f7aaa5d, type: 3}
    - time: 0.5833333
      value: {fileID: 21300000, guid: 4607eb7fa87f65a43bbdf1cb9c640918, type: 3}
    - time: 0.6666667
      value: {fileID: 21300000, guid: 6702d327b47492747823b132ec6044b1, type: 3}
    attribute: m_Sprite
    path: 
    classID: 212
    script: {fileID: 0}
  m_SampleRate: 12
  m_WrapMode: 0
  m_Bounds:
    m_Center: {x: 0, y: 0, z: 0}
    m_Extent: {x: 0, y: 0, z: 0}
  m_ClipBindingConstant:
    genericBindings:
    - serializedVersion: 2
      path: 0
      attribute: 0
      script: {fileID: 0}
      typeID: 212
      customType: 23
      isPPtrCurve: 1
    pptrCurveMapping:
    - {fileID: 21300000, guid: 1bc8dd75d0db55f439c780f94b323efc, type: 3}
    - {fileID: 21300000, guid: 6ab1481a5e6ee28449a373ad7be8113b, type: 3}
    - {fileID: 21300000, guid: 19ad5ab9841852e4ebb44f03d879e58c, type: 3}
    - {fileID: 21300000, guid: e6e32601f27a19e4891f47209d96c8b9, type: 3}
    - {fileID: 21300000, guid: 174f08eb3b520dc448df6d2abe17b322, type: 3}
    - {fileID: 21300000, guid: b49fd401b2d27cb4a93b6c79564abaf5, type: 3}
    - {fileID: 21300000, guid: 93d81f0f663c8294ca249e618f7aaa5d, type: 3}
    - {fileID: 21300000, guid: 4607eb7fa87f65a43bbdf1cb9c640918, type: 3}
    - {fileID: 21300000, guid: 6702d327b47492747823b132ec6044b1, type: 3}
  m_AnimationClipSettings:
    serializedVersion: 2
    m_AdditiveReferencePoseClip: {fileID: 0}
    m_AdditiveReferencePoseTime: 0
    m_StartTime: 0
    m_StopTime: 0.75
    m_OrientationOffsetY: 0
    m_Level: 0
    m_CycleOffset: 0
    m_HasAdditiveReferencePose: 0
    m_LoopTime: 1
    m_LoopBlend: 0
    m_LoopBlendOrientation: 0
    m_LoopBlendPositionY: 0
    m_LoopBlendPositionXZ: 0
    m_KeepOriginalOrientation: 0
    m_KeepOriginalPositionY: 1
    m_KeepOriginalPositionXZ: 0
    m_HeightFromFeet: 0
    m_Mirror: 0
  m_EditorCurves: []
  m_EulerEditorCurves: []
  m_HasGenericRootTransform: 0
  m_HasMotionFloatCurves: 0
  m_Events: []
