%YAML 1.1
%TAG !u! tag:unity3d.com,2011:
--- !u!74 &7400000
AnimationClip:
  m_ObjectHideFlags: 0
  m_CorrespondingSourceObject: {fileID: 0}
  m_PrefabInstance: {fileID: 0}
  m_PrefabAsset: {fileID: 0}
  m_Name: Idle_NE
  serializedVersion: 6
  m_Legacy: 0
  m_Compressed: 0
  m_UseHighQualityCurve: 1
  m_RotationCurves: []
  m_CompressedRotationCurves: []
  m_EulerCurves: []
  m_PositionCurves: []
  m_ScaleCurves: []
  m_FloatCurves: []
  m_PPtrCurves:
  - curve:
    - time: 0
      value: {fileID: 21300000, guid: 8d597fee25a5b7141b5b6b46dc09e607, type: 3}
    - time: 0.083333336
      value: {fileID: 21300000, guid: b2bc78d454655b3418c2ec3342e78ab2, type: 3}
    - time: 0.16666667
      value: {fileID: 21300000, guid: db8cb89a05b1a0d47980c774fc914ea4, type: 3}
    - time: 0.25
      value: {fileID: 21300000, guid: a67cebdeb54edd24cb2eb6e4d1d77795, type: 3}
    - time: 0.33333334
      value: {fileID: 21300000, guid: c81200583fecea148a9686fcbe8544a4, type: 3}
    - time: 0.41666666
      value: {fileID: 21300000, guid: bdbeac1fc49f0f847b828c5581876fb0, type: 3}
    - time: 0.5
      value: {fileID: 21300000, guid: c0ffdfa50b79d6548b5560d4650c3951, type: 3}
    - time: 0.5833333
      value: {fileID: 21300000, guid: 71f7da29a9380624285a5f9d7c86eaf1, type: 3}
    - time: 0.6666667
      value: {fileID: 21300000, guid: 231052e8f1617754b822be481eca33dc, type: 3}
    - time: 0.75
      value: {fileID: 21300000, guid: f6a93ce65d0a2ad48847b83dedf3462e, type: 3}
    - time: 0.8333333
      value: {fileID: 21300000, guid: 3af99940d159ab248a683e8e69f0b748, type: 3}
    - time: 0.9166667
      value: {fileID: 21300000, guid: a96ecdaf5afd8d947a12d2cf3afc312b, type: 3}
    - time: 1
      value: {fileID: 21300000, guid: 4b6fcf8e6e47e004bad542224ca4d295, type: 3}
    - time: 1.0833334
      value: {fileID: 21300000, guid: c59dd6f16d6683541a16ac89eb151563, type: 3}
    - time: 1.1666666
      value: {fileID: 21300000, guid: 5a2733acfed0ce944ae50affd756fd20, type: 3}
    attribute: m_Sprite
    path: 
    classID: 212
    script: {fileID: 0}
  m_SampleRate: 12
  m_WrapMode: 0
  m_Bounds:
    m_Center: {x: 0, y: 0, z: 0}
    m_Extent: {x: 0, y: 0, z: 0}
  m_ClipBindingConstant:
    genericBindings:
    - serializedVersion: 2
      path: 0
      attribute: 0
      script: {fileID: 0}
      typeID: 212
      customType: 23
      isPPtrCurve: 1
    pptrCurveMapping:
    - {fileID: 21300000, guid: 8d597fee25a5b7141b5b6b46dc09e607, type: 3}
    - {fileID: 21300000, guid: b2bc78d454655b3418c2ec3342e78ab2, type: 3}
    - {fileID: 21300000, guid: db8cb89a05b1a0d47980c774fc914ea4, type: 3}
    - {fileID: 21300000, guid: a67cebdeb54edd24cb2eb6e4d1d77795, type: 3}
    - {fileID: 21300000, guid: c81200583fecea148a9686fcbe8544a4, type: 3}
    - {fileID: 21300000, guid: bdbeac1fc49f0f847b828c5581876fb0, type: 3}
    - {fileID: 21300000, guid: c0ffdfa50b79d6548b5560d4650c3951, type: 3}
    - {fileID: 21300000, guid: 71f7da29a9380624285a5f9d7c86eaf1, type: 3}
    - {fileID: 21300000, guid: 231052e8f1617754b822be481eca33dc, type: 3}
    - {fileID: 21300000, guid: f6a93ce65d0a2ad48847b83dedf3462e, type: 3}
    - {fileID: 21300000, guid: 3af99940d159ab248a683e8e69f0b748, type: 3}
    - {fileID: 21300000, guid: a96ecdaf5afd8d947a12d2cf3afc312b, type: 3}
    - {fileID: 21300000, guid: 4b6fcf8e6e47e004bad542224ca4d295, type: 3}
    - {fileID: 21300000, guid: c59dd6f16d6683541a16ac89eb151563, type: 3}
    - {fileID: 21300000, guid: 5a2733acfed0ce944ae50affd756fd20, type: 3}
  m_AnimationClipSettings:
    serializedVersion: 2
    m_AdditiveReferencePoseClip: {fileID: 0}
    m_AdditiveReferencePoseTime: 0
    m_StartTime: 0
    m_StopTime: 1.25
    m_OrientationOffsetY: 0
    m_Level: 0
    m_CycleOffset: 0
    m_HasAdditiveReferencePose: 0
    m_LoopTime: 1
    m_LoopBlend: 0
    m_LoopBlendOrientation: 0
    m_LoopBlendPositionY: 0
    m_LoopBlendPositionXZ: 0
    m_KeepOriginalOrientation: 0
    m_KeepOriginalPositionY: 1
    m_KeepOriginalPositionXZ: 0
    m_HeightFromFeet: 0
    m_Mirror: 0
  m_EditorCurves: []
  m_EulerEditorCurves: []
  m_HasGenericRootTransform: 0
  m_HasMotionFloatCurves: 0
  m_Events: []
