%YAML 1.1
%TAG !u! tag:unity3d.com,2011:
--- !u!74 &7400000
AnimationClip:
  m_ObjectHideFlags: 0
  m_CorrespondingSourceObject: {fileID: 0}
  m_PrefabInstance: {fileID: 0}
  m_PrefabAsset: {fileID: 0}
  m_Name: Walk_NE
  serializedVersion: 6
  m_Legacy: 0
  m_Compressed: 0
  m_UseHighQualityCurve: 1
  m_RotationCurves: []
  m_CompressedRotationCurves: []
  m_EulerCurves: []
  m_PositionCurves: []
  m_ScaleCurves: []
  m_FloatCurves: []
  m_PPtrCurves:
  - curve:
    - time: 0
      value: {fileID: 21300000, guid: 2950afdaf0476b14eadbcbc8d17ddfbb, type: 3}
    - time: 0.083333336
      value: {fileID: 21300000, guid: 2f65855b885d4524fbb5ca01e2d7dc5b, type: 3}
    - time: 0.16666667
      value: {fileID: 21300000, guid: e7ce9b3db2a940f47a3c05340fb17528, type: 3}
    - time: 0.25
      value: {fileID: 21300000, guid: 5ed57efad47332844abe2294e32022c8, type: 3}
    - time: 0.33333334
      value: {fileID: 21300000, guid: 6771f856b3cf81742a560fe3c10a22b4, type: 3}
    - time: 0.41666666
      value: {fileID: 21300000, guid: 647b6e18d55c1bb48abe95d34b3d4072, type: 3}
    - time: 0.5
      value: {fileID: 21300000, guid: 3ac00f2ca670c5b4bab9d69f7ee61853, type: 3}
    - time: 0.5833333
      value: {fileID: 21300000, guid: f160a235c5dc77d4c9bdf059af3771e4, type: 3}
    - time: 0.6666667
      value: {fileID: 21300000, guid: dc69eee6b857a37439be2ca0d2aaeb01, type: 3}
    attribute: m_Sprite
    path: 
    classID: 212
    script: {fileID: 0}
  m_SampleRate: 12
  m_WrapMode: 0
  m_Bounds:
    m_Center: {x: 0, y: 0, z: 0}
    m_Extent: {x: 0, y: 0, z: 0}
  m_ClipBindingConstant:
    genericBindings:
    - serializedVersion: 2
      path: 0
      attribute: 0
      script: {fileID: 0}
      typeID: 212
      customType: 23
      isPPtrCurve: 1
    pptrCurveMapping:
    - {fileID: 21300000, guid: 2950afdaf0476b14eadbcbc8d17ddfbb, type: 3}
    - {fileID: 21300000, guid: 2f65855b885d4524fbb5ca01e2d7dc5b, type: 3}
    - {fileID: 21300000, guid: e7ce9b3db2a940f47a3c05340fb17528, type: 3}
    - {fileID: 21300000, guid: 5ed57efad47332844abe2294e32022c8, type: 3}
    - {fileID: 21300000, guid: 6771f856b3cf81742a560fe3c10a22b4, type: 3}
    - {fileID: 21300000, guid: 647b6e18d55c1bb48abe95d34b3d4072, type: 3}
    - {fileID: 21300000, guid: 3ac00f2ca670c5b4bab9d69f7ee61853, type: 3}
    - {fileID: 21300000, guid: f160a235c5dc77d4c9bdf059af3771e4, type: 3}
    - {fileID: 21300000, guid: dc69eee6b857a37439be2ca0d2aaeb01, type: 3}
  m_AnimationClipSettings:
    serializedVersion: 2
    m_AdditiveReferencePoseClip: {fileID: 0}
    m_AdditiveReferencePoseTime: 0
    m_StartTime: 0
    m_StopTime: 0.75
    m_OrientationOffsetY: 0
    m_Level: 0
    m_CycleOffset: 0
    m_HasAdditiveReferencePose: 0
    m_LoopTime: 1
    m_LoopBlend: 0
    m_LoopBlendOrientation: 0
    m_LoopBlendPositionY: 0
    m_LoopBlendPositionXZ: 0
    m_KeepOriginalOrientation: 0
    m_KeepOriginalPositionY: 1
    m_KeepOriginalPositionXZ: 0
    m_HeightFromFeet: 0
    m_Mirror: 0
  m_EditorCurves: []
  m_EulerEditorCurves: []
  m_HasGenericRootTransform: 0
  m_HasMotionFloatCurves: 0
  m_Events: []
