%YAML 1.1
%TAG !u! tag:unity3d.com,2011:
--- !u!74 &7400000
AnimationClip:
  m_ObjectHideFlags: 0
  m_CorrespondingSourceObject: {fileID: 0}
  m_PrefabInstance: {fileID: 0}
  m_PrefabAsset: {fileID: 0}
  m_Name: Walk_SW
  serializedVersion: 6
  m_Legacy: 0
  m_Compressed: 0
  m_UseHighQualityCurve: 1
  m_RotationCurves: []
  m_CompressedRotationCurves: []
  m_EulerCurves: []
  m_PositionCurves: []
  m_ScaleCurves: []
  m_FloatCurves: []
  m_PPtrCurves:
  - curve:
    - time: 0
      value: {fileID: 21300000, guid: 3d8cacaf0a0d75d4b8ee63ba531af680, type: 3}
    - time: 0.083333336
      value: {fileID: 21300000, guid: 90f25bed0be6318408963731fbf45179, type: 3}
    - time: 0.16666667
      value: {fileID: 21300000, guid: 1654fae89a9dde5448fc626f6e7cfcd3, type: 3}
    - time: 0.25
      value: {fileID: 21300000, guid: 6236b49dcbf949e4e84b27ab0d54b5e7, type: 3}
    - time: 0.33333334
      value: {fileID: 21300000, guid: bd66111975a0a394f987d0f801b42e47, type: 3}
    - time: 0.41666666
      value: {fileID: 21300000, guid: 74afb2ff48754c74fb172e401e47e773, type: 3}
    - time: 0.5
      value: {fileID: 21300000, guid: 368ccd0e5c281bf40a589a36ae4f778d, type: 3}
    - time: 0.5833333
      value: {fileID: 21300000, guid: 937bce80f28ed874fbf380da463682eb, type: 3}
    - time: 0.6666667
      value: {fileID: 21300000, guid: 800b714b4891f6a409363c1dedd70a2b, type: 3}
    attribute: m_Sprite
    path: 
    classID: 212
    script: {fileID: 0}
  m_SampleRate: 12
  m_WrapMode: 0
  m_Bounds:
    m_Center: {x: 0, y: 0, z: 0}
    m_Extent: {x: 0, y: 0, z: 0}
  m_ClipBindingConstant:
    genericBindings:
    - serializedVersion: 2
      path: 0
      attribute: 0
      script: {fileID: 0}
      typeID: 212
      customType: 23
      isPPtrCurve: 1
    pptrCurveMapping:
    - {fileID: 21300000, guid: 3d8cacaf0a0d75d4b8ee63ba531af680, type: 3}
    - {fileID: 21300000, guid: 90f25bed0be6318408963731fbf45179, type: 3}
    - {fileID: 21300000, guid: 1654fae89a9dde5448fc626f6e7cfcd3, type: 3}
    - {fileID: 21300000, guid: 6236b49dcbf949e4e84b27ab0d54b5e7, type: 3}
    - {fileID: 21300000, guid: bd66111975a0a394f987d0f801b42e47, type: 3}
    - {fileID: 21300000, guid: 74afb2ff48754c74fb172e401e47e773, type: 3}
    - {fileID: 21300000, guid: 368ccd0e5c281bf40a589a36ae4f778d, type: 3}
    - {fileID: 21300000, guid: 937bce80f28ed874fbf380da463682eb, type: 3}
    - {fileID: 21300000, guid: 800b714b4891f6a409363c1dedd70a2b, type: 3}
  m_AnimationClipSettings:
    serializedVersion: 2
    m_AdditiveReferencePoseClip: {fileID: 0}
    m_AdditiveReferencePoseTime: 0
    m_StartTime: 0
    m_StopTime: 0.75
    m_OrientationOffsetY: 0
    m_Level: 0
    m_CycleOffset: 0
    m_HasAdditiveReferencePose: 0
    m_LoopTime: 1
    m_LoopBlend: 0
    m_LoopBlendOrientation: 0
    m_LoopBlendPositionY: 0
    m_LoopBlendPositionXZ: 0
    m_KeepOriginalOrientation: 0
    m_KeepOriginalPositionY: 1
    m_KeepOriginalPositionXZ: 0
    m_HeightFromFeet: 0
    m_Mirror: 0
  m_EditorCurves: []
  m_EulerEditorCurves: []
  m_HasGenericRootTransform: 0
  m_HasMotionFloatCurves: 0
  m_Events: []
