%YAML 1.1
%TAG !u! tag:unity3d.com,2011:
--- !u!74 &7400000
AnimationClip:
  m_ObjectHideFlags: 0
  m_CorrespondingSourceObject: {fileID: 0}
  m_PrefabInstance: {fileID: 0}
  m_PrefabAsset: {fileID: 0}
  m_Name: Walk_E
  serializedVersion: 6
  m_Legacy: 0
  m_Compressed: 0
  m_UseHighQualityCurve: 1
  m_RotationCurves: []
  m_CompressedRotationCurves: []
  m_EulerCurves: []
  m_PositionCurves: []
  m_ScaleCurves: []
  m_FloatCurves: []
  m_PPtrCurves:
  - curve:
    - time: 0
      value: {fileID: 21300000, guid: 3b47a8e26dad8f742aeae2d9f5d530b1, type: 3}
    - time: 0.083333336
      value: {fileID: 21300000, guid: 978a83ed721b01749838b9fa6439a99a, type: 3}
    - time: 0.16666667
      value: {fileID: 21300000, guid: 1d85ee860c2bb3c428ecefd0137736a2, type: 3}
    - time: 0.25
      value: {fileID: 21300000, guid: 0bcc9bea75f66f144bf9b51a8c6b223b, type: 3}
    - time: 0.33333334
      value: {fileID: 21300000, guid: 169cdc7e2da2cda4b884a2d19a365183, type: 3}
    - time: 0.41666666
      value: {fileID: 21300000, guid: d4fc5c5165754fa4c90d77b2458d027f, type: 3}
    - time: 0.5
      value: {fileID: 21300000, guid: 0d53cb043faa8d14bb57f7880501b4ec, type: 3}
    - time: 0.5833333
      value: {fileID: 21300000, guid: e7b0ebab5a450334a98c623167a7060f, type: 3}
    - time: 0.6666667
      value: {fileID: 21300000, guid: 06f2aa20611de34499e54e0e87781579, type: 3}
    attribute: m_Sprite
    path: 
    classID: 212
    script: {fileID: 0}
  m_SampleRate: 12
  m_WrapMode: 0
  m_Bounds:
    m_Center: {x: 0, y: 0, z: 0}
    m_Extent: {x: 0, y: 0, z: 0}
  m_ClipBindingConstant:
    genericBindings:
    - serializedVersion: 2
      path: 0
      attribute: 0
      script: {fileID: 0}
      typeID: 212
      customType: 23
      isPPtrCurve: 1
    pptrCurveMapping:
    - {fileID: 21300000, guid: 3b47a8e26dad8f742aeae2d9f5d530b1, type: 3}
    - {fileID: 21300000, guid: 978a83ed721b01749838b9fa6439a99a, type: 3}
    - {fileID: 21300000, guid: 1d85ee860c2bb3c428ecefd0137736a2, type: 3}
    - {fileID: 21300000, guid: 0bcc9bea75f66f144bf9b51a8c6b223b, type: 3}
    - {fileID: 21300000, guid: 169cdc7e2da2cda4b884a2d19a365183, type: 3}
    - {fileID: 21300000, guid: d4fc5c5165754fa4c90d77b2458d027f, type: 3}
    - {fileID: 21300000, guid: 0d53cb043faa8d14bb57f7880501b4ec, type: 3}
    - {fileID: 21300000, guid: e7b0ebab5a450334a98c623167a7060f, type: 3}
    - {fileID: 21300000, guid: 06f2aa20611de34499e54e0e87781579, type: 3}
  m_AnimationClipSettings:
    serializedVersion: 2
    m_AdditiveReferencePoseClip: {fileID: 0}
    m_AdditiveReferencePoseTime: 0
    m_StartTime: 0
    m_StopTime: 0.75
    m_OrientationOffsetY: 0
    m_Level: 0
    m_CycleOffset: 0
    m_HasAdditiveReferencePose: 0
    m_LoopTime: 1
    m_LoopBlend: 0
    m_LoopBlendOrientation: 0
    m_LoopBlendPositionY: 0
    m_LoopBlendPositionXZ: 0
    m_KeepOriginalOrientation: 0
    m_KeepOriginalPositionY: 1
    m_KeepOriginalPositionXZ: 0
    m_HeightFromFeet: 0
    m_Mirror: 0
  m_EditorCurves: []
  m_EulerEditorCurves: []
  m_HasGenericRootTransform: 0
  m_HasMotionFloatCurves: 0
  m_Events: []
