%YAML 1.1
%TAG !u! tag:unity3d.com,2011:
--- !u!74 &7400000
AnimationClip:
  m_ObjectHideFlags: 0
  m_CorrespondingSourceObject: {fileID: 0}
  m_PrefabInstance: {fileID: 0}
  m_PrefabAsset: {fileID: 0}
  m_Name: Death_NW
  serializedVersion: 6
  m_Legacy: 0
  m_Compressed: 0
  m_UseHighQualityCurve: 1
  m_RotationCurves: []
  m_CompressedRotationCurves: []
  m_EulerCurves: []
  m_PositionCurves: []
  m_ScaleCurves: []
  m_FloatCurves: []
  m_PPtrCurves:
  - curve:
    - time: 0
      value: {fileID: 21300000, guid: d9b10c905412207419448b9d71b5e080, type: 3}
    - time: 0.083333336
      value: {fileID: 21300000, guid: 9bdea931c8f4c3143aee4c176891f1e9, type: 3}
    - time: 0.16666667
      value: {fileID: 21300000, guid: 99b36db8dc75c6247b9d67725cb68d70, type: 3}
    - time: 0.25
      value: {fileID: 21300000, guid: 71e0c0b19eef07341af26fd49eea0c80, type: 3}
    - time: 0.33333334
      value: {fileID: 21300000, guid: f7ad0f3325380f8438b2d27f287a39e9, type: 3}
    - time: 0.41666666
      value: {fileID: 21300000, guid: 11ba818b5d3b3924a9d18b63aedc538b, type: 3}
    - time: 0.5
      value: {fileID: 21300000, guid: f08122b4c764aef498d615a4e0c22198, type: 3}
    - time: 0.5833333
      value: {fileID: 21300000, guid: 4e03423e469ea2949b75e0c4d71d28a7, type: 3}
    - time: 0.6666667
      value: {fileID: 21300000, guid: ac8ff06eea2e4de499f4e56a5357fd96, type: 3}
    - time: 0.75
      value: {fileID: 21300000, guid: d09019d3388d6b74ab8d91ede80bbb23, type: 3}
    - time: 0.8333333
      value: {fileID: 21300000, guid: 00014345067449b448816930f5d50bcd, type: 3}
    - time: 0.9166667
      value: {fileID: 21300000, guid: b000ac970e268a94c88860094c8bf7d0, type: 3}
    - time: 1
      value: {fileID: 21300000, guid: dea1ae3f441a48241b734378dda981d2, type: 3}
    - time: 1.0833334
      value: {fileID: 21300000, guid: c65bf3ec914b18a49850fb92c6fd756b, type: 3}
    - time: 1.1666666
      value: {fileID: 21300000, guid: 13c2595826e1e2f4ca6906ec27cea630, type: 3}
    - time: 1.25
      value: {fileID: 21300000, guid: 695b9f6d65115a24a8cb87e9b054d648, type: 3}
    - time: 1.3333334
      value: {fileID: 21300000, guid: 41f7a7f831e8bf64f86a4e544ebfc4af, type: 3}
    - time: 1.4166666
      value: {fileID: 21300000, guid: cb82a1b3760032b47bd5fdfdafeb0c25, type: 3}
    - time: 1.5
      value: {fileID: 21300000, guid: f058e093f70669b47a040f2224bfefc8, type: 3}
    - time: 1.5833334
      value: {fileID: 21300000, guid: 3e0d51aae56df5045ba45cfad3e0fdb1, type: 3}
    attribute: m_Sprite
    path: 
    classID: 212
    script: {fileID: 0}
  m_SampleRate: 12
  m_WrapMode: 0
  m_Bounds:
    m_Center: {x: 0, y: 0, z: 0}
    m_Extent: {x: 0, y: 0, z: 0}
  m_ClipBindingConstant:
    genericBindings:
    - serializedVersion: 2
      path: 0
      attribute: 0
      script: {fileID: 0}
      typeID: 212
      customType: 23
      isPPtrCurve: 1
    pptrCurveMapping:
    - {fileID: 21300000, guid: d9b10c905412207419448b9d71b5e080, type: 3}
    - {fileID: 21300000, guid: 9bdea931c8f4c3143aee4c176891f1e9, type: 3}
    - {fileID: 21300000, guid: 99b36db8dc75c6247b9d67725cb68d70, type: 3}
    - {fileID: 21300000, guid: 71e0c0b19eef07341af26fd49eea0c80, type: 3}
    - {fileID: 21300000, guid: f7ad0f3325380f8438b2d27f287a39e9, type: 3}
    - {fileID: 21300000, guid: 11ba818b5d3b3924a9d18b63aedc538b, type: 3}
    - {fileID: 21300000, guid: f08122b4c764aef498d615a4e0c22198, type: 3}
    - {fileID: 21300000, guid: 4e03423e469ea2949b75e0c4d71d28a7, type: 3}
    - {fileID: 21300000, guid: ac8ff06eea2e4de499f4e56a5357fd96, type: 3}
    - {fileID: 21300000, guid: d09019d3388d6b74ab8d91ede80bbb23, type: 3}
    - {fileID: 21300000, guid: 00014345067449b448816930f5d50bcd, type: 3}
    - {fileID: 21300000, guid: b000ac970e268a94c88860094c8bf7d0, type: 3}
    - {fileID: 21300000, guid: dea1ae3f441a48241b734378dda981d2, type: 3}
    - {fileID: 21300000, guid: c65bf3ec914b18a49850fb92c6fd756b, type: 3}
    - {fileID: 21300000, guid: 13c2595826e1e2f4ca6906ec27cea630, type: 3}
    - {fileID: 21300000, guid: 695b9f6d65115a24a8cb87e9b054d648, type: 3}
    - {fileID: 21300000, guid: 41f7a7f831e8bf64f86a4e544ebfc4af, type: 3}
    - {fileID: 21300000, guid: cb82a1b3760032b47bd5fdfdafeb0c25, type: 3}
    - {fileID: 21300000, guid: f058e093f70669b47a040f2224bfefc8, type: 3}
    - {fileID: 21300000, guid: 3e0d51aae56df5045ba45cfad3e0fdb1, type: 3}
  m_AnimationClipSettings:
    serializedVersion: 2
    m_AdditiveReferencePoseClip: {fileID: 0}
    m_AdditiveReferencePoseTime: 0
    m_StartTime: 0
    m_StopTime: 1.6666667
    m_OrientationOffsetY: 0
    m_Level: 0
    m_CycleOffset: 0
    m_HasAdditiveReferencePose: 0
    m_LoopTime: 0
    m_LoopBlend: 0
    m_LoopBlendOrientation: 0
    m_LoopBlendPositionY: 0
    m_LoopBlendPositionXZ: 0
    m_KeepOriginalOrientation: 0
    m_KeepOriginalPositionY: 1
    m_KeepOriginalPositionXZ: 0
    m_HeightFromFeet: 0
    m_Mirror: 0
  m_EditorCurves: []
  m_EulerEditorCurves: []
  m_HasGenericRootTransform: 0
  m_HasMotionFloatCurves: 0
  m_Events:
  - time: 1.5833334
    functionName: DestroySolider
    data: 
    objectReferenceParameter: {fileID: 0}
    floatParameter: 0
    intParameter: 0
    messageOptions: 0
