%YAML 1.1
%TAG !u! tag:unity3d.com,2011:
--- !u!74 &7400000
AnimationClip:
  m_ObjectHideFlags: 0
  m_CorrespondingSourceObject: {fileID: 0}
  m_PrefabInstance: {fileID: 0}
  m_PrefabAsset: {fileID: 0}
  m_Name: Walk_W
  serializedVersion: 6
  m_Legacy: 0
  m_Compressed: 0
  m_UseHighQualityCurve: 1
  m_RotationCurves: []
  m_CompressedRotationCurves: []
  m_EulerCurves: []
  m_PositionCurves: []
  m_ScaleCurves: []
  m_FloatCurves: []
  m_PPtrCurves:
  - curve:
    - time: 0
      value: {fileID: 21300000, guid: 05503fceb24ae3a47a6bb3e618a5d885, type: 3}
    - time: 0.083333336
      value: {fileID: 21300000, guid: e1df50393009ba8418b5117a752aa99d, type: 3}
    - time: 0.16666667
      value: {fileID: 21300000, guid: 7f5a1e66ad86ff84db542ba51ae1226e, type: 3}
    - time: 0.25
      value: {fileID: 21300000, guid: 5ff72f817b0fd0d4d901d6e4ecd190e4, type: 3}
    - time: 0.33333334
      value: {fileID: 21300000, guid: 6263e7a13300dc3419c15d3e1ce9eab6, type: 3}
    - time: 0.41666666
      value: {fileID: 21300000, guid: 7e1c6a1f1c695a149ad838461079d6ac, type: 3}
    - time: 0.5
      value: {fileID: 21300000, guid: 606be458a4c25464fb153da53aab42bd, type: 3}
    - time: 0.5833333
      value: {fileID: 21300000, guid: c0fbe6cd56dc85d4faa60a18eeadd62e, type: 3}
    - time: 0.6666667
      value: {fileID: 21300000, guid: 15c08baf9126dbd47a004a3d535c92a4, type: 3}
    attribute: m_Sprite
    path: 
    classID: 212
    script: {fileID: 0}
  m_SampleRate: 12
  m_WrapMode: 0
  m_Bounds:
    m_Center: {x: 0, y: 0, z: 0}
    m_Extent: {x: 0, y: 0, z: 0}
  m_ClipBindingConstant:
    genericBindings:
    - serializedVersion: 2
      path: 0
      attribute: 0
      script: {fileID: 0}
      typeID: 212
      customType: 23
      isPPtrCurve: 1
    pptrCurveMapping:
    - {fileID: 21300000, guid: 05503fceb24ae3a47a6bb3e618a5d885, type: 3}
    - {fileID: 21300000, guid: e1df50393009ba8418b5117a752aa99d, type: 3}
    - {fileID: 21300000, guid: 7f5a1e66ad86ff84db542ba51ae1226e, type: 3}
    - {fileID: 21300000, guid: 5ff72f817b0fd0d4d901d6e4ecd190e4, type: 3}
    - {fileID: 21300000, guid: 6263e7a13300dc3419c15d3e1ce9eab6, type: 3}
    - {fileID: 21300000, guid: 7e1c6a1f1c695a149ad838461079d6ac, type: 3}
    - {fileID: 21300000, guid: 606be458a4c25464fb153da53aab42bd, type: 3}
    - {fileID: 21300000, guid: c0fbe6cd56dc85d4faa60a18eeadd62e, type: 3}
    - {fileID: 21300000, guid: 15c08baf9126dbd47a004a3d535c92a4, type: 3}
  m_AnimationClipSettings:
    serializedVersion: 2
    m_AdditiveReferencePoseClip: {fileID: 0}
    m_AdditiveReferencePoseTime: 0
    m_StartTime: 0
    m_StopTime: 0.75
    m_OrientationOffsetY: 0
    m_Level: 0
    m_CycleOffset: 0
    m_HasAdditiveReferencePose: 0
    m_LoopTime: 1
    m_LoopBlend: 0
    m_LoopBlendOrientation: 0
    m_LoopBlendPositionY: 0
    m_LoopBlendPositionXZ: 0
    m_KeepOriginalOrientation: 0
    m_KeepOriginalPositionY: 1
    m_KeepOriginalPositionXZ: 0
    m_HeightFromFeet: 0
    m_Mirror: 0
  m_EditorCurves: []
  m_EulerEditorCurves: []
  m_HasGenericRootTransform: 0
  m_HasMotionFloatCurves: 0
  m_Events: []
