%YAML 1.1
%TAG !u! tag:unity3d.com,2011:
--- !u!74 &7400000
AnimationClip:
  m_ObjectHideFlags: 0
  m_CorrespondingSourceObject: {fileID: 0}
  m_PrefabInstance: {fileID: 0}
  m_PrefabAsset: {fileID: 0}
  m_Name: Walk_NE
  serializedVersion: 6
  m_Legacy: 0
  m_Compressed: 0
  m_UseHighQualityCurve: 1
  m_RotationCurves: []
  m_CompressedRotationCurves: []
  m_EulerCurves: []
  m_PositionCurves: []
  m_ScaleCurves: []
  m_FloatCurves: []
  m_PPtrCurves:
  - curve:
    - time: 0
      value: {fileID: 21300000, guid: 99c313ed5aa2dfd438c7521842555d5f, type: 3}
    - time: 0.083333336
      value: {fileID: 21300000, guid: ed53809a1b8abcd4993ac12beae33300, type: 3}
    - time: 0.16666667
      value: {fileID: 21300000, guid: 522d09e5fb983bf40af5d063a476833a, type: 3}
    - time: 0.25
      value: {fileID: 21300000, guid: 4b7671fd1fd81d7488428c7c5cbd7f4d, type: 3}
    - time: 0.33333334
      value: {fileID: 21300000, guid: 958436d79a809de48b338cc9018dee7f, type: 3}
    - time: 0.41666666
      value: {fileID: 21300000, guid: 450ccbcafa7b2f64fae961daa2ee1675, type: 3}
    - time: 0.5
      value: {fileID: 21300000, guid: 8bfba05c7037b994eb6c85d7af67210f, type: 3}
    - time: 0.5833333
      value: {fileID: 21300000, guid: 702fbcaa67b552242b994081f7b088e2, type: 3}
    - time: 0.6666667
      value: {fileID: 21300000, guid: 2910effc5ec9e944c929c638c195885f, type: 3}
    attribute: m_Sprite
    path: 
    classID: 212
    script: {fileID: 0}
  m_SampleRate: 12
  m_WrapMode: 0
  m_Bounds:
    m_Center: {x: 0, y: 0, z: 0}
    m_Extent: {x: 0, y: 0, z: 0}
  m_ClipBindingConstant:
    genericBindings:
    - serializedVersion: 2
      path: 0
      attribute: 0
      script: {fileID: 0}
      typeID: 212
      customType: 23
      isPPtrCurve: 1
    pptrCurveMapping:
    - {fileID: 21300000, guid: 99c313ed5aa2dfd438c7521842555d5f, type: 3}
    - {fileID: 21300000, guid: ed53809a1b8abcd4993ac12beae33300, type: 3}
    - {fileID: 21300000, guid: 522d09e5fb983bf40af5d063a476833a, type: 3}
    - {fileID: 21300000, guid: 4b7671fd1fd81d7488428c7c5cbd7f4d, type: 3}
    - {fileID: 21300000, guid: 958436d79a809de48b338cc9018dee7f, type: 3}
    - {fileID: 21300000, guid: 450ccbcafa7b2f64fae961daa2ee1675, type: 3}
    - {fileID: 21300000, guid: 8bfba05c7037b994eb6c85d7af67210f, type: 3}
    - {fileID: 21300000, guid: 702fbcaa67b552242b994081f7b088e2, type: 3}
    - {fileID: 21300000, guid: 2910effc5ec9e944c929c638c195885f, type: 3}
  m_AnimationClipSettings:
    serializedVersion: 2
    m_AdditiveReferencePoseClip: {fileID: 0}
    m_AdditiveReferencePoseTime: 0
    m_StartTime: 0
    m_StopTime: 0.75
    m_OrientationOffsetY: 0
    m_Level: 0
    m_CycleOffset: 0
    m_HasAdditiveReferencePose: 0
    m_LoopTime: 1
    m_LoopBlend: 0
    m_LoopBlendOrientation: 0
    m_LoopBlendPositionY: 0
    m_LoopBlendPositionXZ: 0
    m_KeepOriginalOrientation: 0
    m_KeepOriginalPositionY: 1
    m_KeepOriginalPositionXZ: 0
    m_HeightFromFeet: 0
    m_Mirror: 0
  m_EditorCurves: []
  m_EulerEditorCurves: []
  m_HasGenericRootTransform: 0
  m_HasMotionFloatCurves: 0
  m_Events: []
