%YAML 1.1
%TAG !u! tag:unity3d.com,2011:
--- !u!74 &7400000
AnimationClip:
  m_ObjectHideFlags: 0
  m_CorrespondingSourceObject: {fileID: 0}
  m_PrefabInstance: {fileID: 0}
  m_PrefabAsset: {fileID: 0}
  m_Name: Walk_SW
  serializedVersion: 6
  m_Legacy: 0
  m_Compressed: 0
  m_UseHighQualityCurve: 1
  m_RotationCurves: []
  m_CompressedRotationCurves: []
  m_EulerCurves: []
  m_PositionCurves: []
  m_ScaleCurves: []
  m_FloatCurves: []
  m_PPtrCurves:
  - curve:
    - time: 0
      value: {fileID: 21300000, guid: 51a78ff70f074024d8bf082c906e5e79, type: 3}
    - time: 0.083333336
      value: {fileID: 21300000, guid: c1f51ab40a63b7e4488986900d55a1b5, type: 3}
    - time: 0.16666667
      value: {fileID: 21300000, guid: 99d2aa53d18191c4fad848b136a6c65e, type: 3}
    - time: 0.25
      value: {fileID: 21300000, guid: 74b47fbe5fd5e3648b7d208d2d6ca48f, type: 3}
    - time: 0.33333334
      value: {fileID: 21300000, guid: 065a951206b6e8b4ba22d9c801dfb466, type: 3}
    - time: 0.41666666
      value: {fileID: 21300000, guid: 3d5375346f51b184291766e9fc8751c3, type: 3}
    - time: 0.5
      value: {fileID: 21300000, guid: dcbd16d8c740f294493ed58fb658537d, type: 3}
    - time: 0.5833333
      value: {fileID: 21300000, guid: 7d4649f5be0caba43a0c6b0e5c172d2b, type: 3}
    - time: 0.6666667
      value: {fileID: 21300000, guid: e34aa1aa22a886447ab55569f9df6631, type: 3}
    attribute: m_Sprite
    path: 
    classID: 212
    script: {fileID: 0}
  m_SampleRate: 12
  m_WrapMode: 0
  m_Bounds:
    m_Center: {x: 0, y: 0, z: 0}
    m_Extent: {x: 0, y: 0, z: 0}
  m_ClipBindingConstant:
    genericBindings:
    - serializedVersion: 2
      path: 0
      attribute: 0
      script: {fileID: 0}
      typeID: 212
      customType: 23
      isPPtrCurve: 1
    pptrCurveMapping:
    - {fileID: 21300000, guid: 51a78ff70f074024d8bf082c906e5e79, type: 3}
    - {fileID: 21300000, guid: c1f51ab40a63b7e4488986900d55a1b5, type: 3}
    - {fileID: 21300000, guid: 99d2aa53d18191c4fad848b136a6c65e, type: 3}
    - {fileID: 21300000, guid: 74b47fbe5fd5e3648b7d208d2d6ca48f, type: 3}
    - {fileID: 21300000, guid: 065a951206b6e8b4ba22d9c801dfb466, type: 3}
    - {fileID: 21300000, guid: 3d5375346f51b184291766e9fc8751c3, type: 3}
    - {fileID: 21300000, guid: dcbd16d8c740f294493ed58fb658537d, type: 3}
    - {fileID: 21300000, guid: 7d4649f5be0caba43a0c6b0e5c172d2b, type: 3}
    - {fileID: 21300000, guid: e34aa1aa22a886447ab55569f9df6631, type: 3}
  m_AnimationClipSettings:
    serializedVersion: 2
    m_AdditiveReferencePoseClip: {fileID: 0}
    m_AdditiveReferencePoseTime: 0
    m_StartTime: 0
    m_StopTime: 0.75
    m_OrientationOffsetY: 0
    m_Level: 0
    m_CycleOffset: 0
    m_HasAdditiveReferencePose: 0
    m_LoopTime: 1
    m_LoopBlend: 0
    m_LoopBlendOrientation: 0
    m_LoopBlendPositionY: 0
    m_LoopBlendPositionXZ: 0
    m_KeepOriginalOrientation: 0
    m_KeepOriginalPositionY: 1
    m_KeepOriginalPositionXZ: 0
    m_HeightFromFeet: 0
    m_Mirror: 0
  m_EditorCurves: []
  m_EulerEditorCurves: []
  m_HasGenericRootTransform: 0
  m_HasMotionFloatCurves: 0
  m_Events: []
