%YAML 1.1
%TAG !u! tag:unity3d.com,2011:
--- !u!74 &7400000
AnimationClip:
  m_ObjectHideFlags: 0
  m_CorrespondingSourceObject: {fileID: 0}
  m_PrefabInstance: {fileID: 0}
  m_PrefabAsset: {fileID: 0}
  m_Name: Idle_W
  serializedVersion: 6
  m_Legacy: 0
  m_Compressed: 0
  m_UseHighQualityCurve: 1
  m_RotationCurves: []
  m_CompressedRotationCurves: []
  m_EulerCurves: []
  m_PositionCurves: []
  m_ScaleCurves: []
  m_FloatCurves: []
  m_PPtrCurves:
  - curve:
    - time: 0
      value: {fileID: 21300000, guid: dfe67febf40dab24bb3a458de5338a99, type: 3}
    - time: 0.083333336
      value: {fileID: 21300000, guid: 5255a3cc7b20e254e97f94765811d826, type: 3}
    - time: 0.16666667
      value: {fileID: 21300000, guid: 98f438de0cf44904cbf6625201973489, type: 3}
    - time: 0.25
      value: {fileID: 21300000, guid: 841288c9284eb77438137ab4eec56a20, type: 3}
    - time: 0.33333334
      value: {fileID: 21300000, guid: f4999ada2c2474540ab2466139d485bb, type: 3}
    - time: 0.41666666
      value: {fileID: 21300000, guid: 13915a71e67e48441982a1adad90e3bb, type: 3}
    - time: 0.5
      value: {fileID: 21300000, guid: 145287173c7aa5a438c9605d45f6b1ff, type: 3}
    - time: 0.5833333
      value: {fileID: 21300000, guid: 4a7580e7da0a549488a9cacdf845de33, type: 3}
    - time: 0.6666667
      value: {fileID: 21300000, guid: 875e300e87f13bf448025d000f6c7f5e, type: 3}
    - time: 0.75
      value: {fileID: 21300000, guid: 489efc21135d04847b42b5b0e6b887cf, type: 3}
    - time: 0.8333333
      value: {fileID: 21300000, guid: 36cc32a6da2c8d34089858c44e3bad41, type: 3}
    - time: 0.9166667
      value: {fileID: 21300000, guid: 3527757b5ef5c824880dde40b796c2b2, type: 3}
    - time: 1
      value: {fileID: 21300000, guid: 9fbfef3c3874be645974b56919256330, type: 3}
    - time: 1.0833334
      value: {fileID: 21300000, guid: 8aac0c0afe0c33e4e9ae31e5155e02b1, type: 3}
    - time: 1.1666666
      value: {fileID: 21300000, guid: 9a1b9d4f7a8e1a34ebf50fb868d40e9d, type: 3}
    attribute: m_Sprite
    path: 
    classID: 212
    script: {fileID: 0}
  m_SampleRate: 12
  m_WrapMode: 0
  m_Bounds:
    m_Center: {x: 0, y: 0, z: 0}
    m_Extent: {x: 0, y: 0, z: 0}
  m_ClipBindingConstant:
    genericBindings:
    - serializedVersion: 2
      path: 0
      attribute: 0
      script: {fileID: 0}
      typeID: 212
      customType: 23
      isPPtrCurve: 1
    pptrCurveMapping:
    - {fileID: 21300000, guid: dfe67febf40dab24bb3a458de5338a99, type: 3}
    - {fileID: 21300000, guid: 5255a3cc7b20e254e97f94765811d826, type: 3}
    - {fileID: 21300000, guid: 98f438de0cf44904cbf6625201973489, type: 3}
    - {fileID: 21300000, guid: 841288c9284eb77438137ab4eec56a20, type: 3}
    - {fileID: 21300000, guid: f4999ada2c2474540ab2466139d485bb, type: 3}
    - {fileID: 21300000, guid: 13915a71e67e48441982a1adad90e3bb, type: 3}
    - {fileID: 21300000, guid: 145287173c7aa5a438c9605d45f6b1ff, type: 3}
    - {fileID: 21300000, guid: 4a7580e7da0a549488a9cacdf845de33, type: 3}
    - {fileID: 21300000, guid: 875e300e87f13bf448025d000f6c7f5e, type: 3}
    - {fileID: 21300000, guid: 489efc21135d04847b42b5b0e6b887cf, type: 3}
    - {fileID: 21300000, guid: 36cc32a6da2c8d34089858c44e3bad41, type: 3}
    - {fileID: 21300000, guid: 3527757b5ef5c824880dde40b796c2b2, type: 3}
    - {fileID: 21300000, guid: 9fbfef3c3874be645974b56919256330, type: 3}
    - {fileID: 21300000, guid: 8aac0c0afe0c33e4e9ae31e5155e02b1, type: 3}
    - {fileID: 21300000, guid: 9a1b9d4f7a8e1a34ebf50fb868d40e9d, type: 3}
  m_AnimationClipSettings:
    serializedVersion: 2
    m_AdditiveReferencePoseClip: {fileID: 0}
    m_AdditiveReferencePoseTime: 0
    m_StartTime: 0
    m_StopTime: 1.25
    m_OrientationOffsetY: 0
    m_Level: 0
    m_CycleOffset: 0
    m_HasAdditiveReferencePose: 0
    m_LoopTime: 1
    m_LoopBlend: 0
    m_LoopBlendOrientation: 0
    m_LoopBlendPositionY: 0
    m_LoopBlendPositionXZ: 0
    m_KeepOriginalOrientation: 0
    m_KeepOriginalPositionY: 1
    m_KeepOriginalPositionXZ: 0
    m_HeightFromFeet: 0
    m_Mirror: 0
  m_EditorCurves: []
  m_EulerEditorCurves: []
  m_HasGenericRootTransform: 0
  m_HasMotionFloatCurves: 0
  m_Events: []
