%YAML 1.1
%TAG !u! tag:unity3d.com,2011:
--- !u!74 &7400000
AnimationClip:
  m_ObjectHideFlags: 0
  m_CorrespondingSourceObject: {fileID: 0}
  m_PrefabInstance: {fileID: 0}
  m_PrefabAsset: {fileID: 0}
  m_Name: Walk_S
  serializedVersion: 6
  m_Legacy: 0
  m_Compressed: 0
  m_UseHighQualityCurve: 1
  m_RotationCurves: []
  m_CompressedRotationCurves: []
  m_EulerCurves: []
  m_PositionCurves: []
  m_ScaleCurves: []
  m_FloatCurves: []
  m_PPtrCurves:
  - curve:
    - time: 0
      value: {fileID: 21300000, guid: dc27c9df471c21f4782cfd2085d02243, type: 3}
    - time: 0.083333336
      value: {fileID: 21300000, guid: 70ffbf79238cfc044abd9bfe6752ec73, type: 3}
    - time: 0.16666667
      value: {fileID: 21300000, guid: 59da457e125e8b24c8411b0f6f7f8ac5, type: 3}
    - time: 0.25
      value: {fileID: 21300000, guid: 8fe4d0d05b5856c4bb8269597894262b, type: 3}
    - time: 0.33333334
      value: {fileID: 21300000, guid: 510a675b1a6230d4484f942fe22adc21, type: 3}
    - time: 0.41666666
      value: {fileID: 21300000, guid: a437e08ea91fe904ba7fdec01ff72c30, type: 3}
    - time: 0.5
      value: {fileID: 21300000, guid: e7bd13786225bdd428a05284d0b67ba0, type: 3}
    - time: 0.5833333
      value: {fileID: 21300000, guid: 89e28f5e6c23d5849be543edd179c676, type: 3}
    - time: 0.6666667
      value: {fileID: 21300000, guid: 011016f76111d3a48bceaf59b3478f90, type: 3}
    attribute: m_Sprite
    path: 
    classID: 212
    script: {fileID: 0}
  m_SampleRate: 12
  m_WrapMode: 0
  m_Bounds:
    m_Center: {x: 0, y: 0, z: 0}
    m_Extent: {x: 0, y: 0, z: 0}
  m_ClipBindingConstant:
    genericBindings:
    - serializedVersion: 2
      path: 0
      attribute: 0
      script: {fileID: 0}
      typeID: 212
      customType: 23
      isPPtrCurve: 1
    pptrCurveMapping:
    - {fileID: 21300000, guid: dc27c9df471c21f4782cfd2085d02243, type: 3}
    - {fileID: 21300000, guid: 70ffbf79238cfc044abd9bfe6752ec73, type: 3}
    - {fileID: 21300000, guid: 59da457e125e8b24c8411b0f6f7f8ac5, type: 3}
    - {fileID: 21300000, guid: 8fe4d0d05b5856c4bb8269597894262b, type: 3}
    - {fileID: 21300000, guid: 510a675b1a6230d4484f942fe22adc21, type: 3}
    - {fileID: 21300000, guid: a437e08ea91fe904ba7fdec01ff72c30, type: 3}
    - {fileID: 21300000, guid: e7bd13786225bdd428a05284d0b67ba0, type: 3}
    - {fileID: 21300000, guid: 89e28f5e6c23d5849be543edd179c676, type: 3}
    - {fileID: 21300000, guid: 011016f76111d3a48bceaf59b3478f90, type: 3}
  m_AnimationClipSettings:
    serializedVersion: 2
    m_AdditiveReferencePoseClip: {fileID: 0}
    m_AdditiveReferencePoseTime: 0
    m_StartTime: 0
    m_StopTime: 0.75
    m_OrientationOffsetY: 0
    m_Level: 0
    m_CycleOffset: 0
    m_HasAdditiveReferencePose: 0
    m_LoopTime: 1
    m_LoopBlend: 0
    m_LoopBlendOrientation: 0
    m_LoopBlendPositionY: 0
    m_LoopBlendPositionXZ: 0
    m_KeepOriginalOrientation: 0
    m_KeepOriginalPositionY: 1
    m_KeepOriginalPositionXZ: 0
    m_HeightFromFeet: 0
    m_Mirror: 0
  m_EditorCurves: []
  m_EulerEditorCurves: []
  m_HasGenericRootTransform: 0
  m_HasMotionFloatCurves: 0
  m_Events: []
