%YAML 1.1
%TAG !u! tag:unity3d.com,2011:
--- !u!74 &7400000
AnimationClip:
  m_ObjectHideFlags: 0
  m_CorrespondingSourceObject: {fileID: 0}
  m_PrefabInstance: {fileID: 0}
  m_PrefabAsset: {fileID: 0}
  m_Name: Walk_N
  serializedVersion: 6
  m_Legacy: 0
  m_Compressed: 0
  m_UseHighQualityCurve: 1
  m_RotationCurves: []
  m_CompressedRotationCurves: []
  m_EulerCurves: []
  m_PositionCurves: []
  m_ScaleCurves: []
  m_FloatCurves: []
  m_PPtrCurves:
  - curve:
    - time: 0
      value: {fileID: 21300000, guid: ff048398899dcf948925435662bd7941, type: 3}
    - time: 0.016666668
      value: {fileID: 21300000, guid: cbdc2d99f3d01cc438e24a0dab750f86, type: 3}
    - time: 0.033333335
      value: {fileID: 21300000, guid: 936510f4a45d22d4f8a76f5d7d7cf3fe, type: 3}
    - time: 0.05
      value: {fileID: 21300000, guid: f0fccea55f9adfa44ad4e1e045fa1ea4, type: 3}
    - time: 0.06666667
      value: {fileID: 21300000, guid: f82787bb0018b12438e9b947af3f2b4c, type: 3}
    - time: 0.083333336
      value: {fileID: 21300000, guid: 3e635d0d62f674e40a2d2741867936d1, type: 3}
    - time: 0.1
      value: {fileID: 21300000, guid: 8ebaf06b7e6a3fa4698f36c35d3488da, type: 3}
    - time: 0.11666667
      value: {fileID: 21300000, guid: c620c6b155410d547a32223d94bff1ab, type: 3}
    attribute: m_Sprite
    path: 
    classID: 212
    script: {fileID: 0}
  m_SampleRate: 60
  m_WrapMode: 0
  m_Bounds:
    m_Center: {x: 0, y: 0, z: 0}
    m_Extent: {x: 0, y: 0, z: 0}
  m_ClipBindingConstant:
    genericBindings:
    - serializedVersion: 2
      path: 0
      attribute: 0
      script: {fileID: 0}
      typeID: 212
      customType: 23
      isPPtrCurve: 1
    pptrCurveMapping:
    - {fileID: 21300000, guid: ff048398899dcf948925435662bd7941, type: 3}
    - {fileID: 21300000, guid: cbdc2d99f3d01cc438e24a0dab750f86, type: 3}
    - {fileID: 21300000, guid: 936510f4a45d22d4f8a76f5d7d7cf3fe, type: 3}
    - {fileID: 21300000, guid: f0fccea55f9adfa44ad4e1e045fa1ea4, type: 3}
    - {fileID: 21300000, guid: f82787bb0018b12438e9b947af3f2b4c, type: 3}
    - {fileID: 21300000, guid: 3e635d0d62f674e40a2d2741867936d1, type: 3}
    - {fileID: 21300000, guid: 8ebaf06b7e6a3fa4698f36c35d3488da, type: 3}
    - {fileID: 21300000, guid: c620c6b155410d547a32223d94bff1ab, type: 3}
  m_AnimationClipSettings:
    serializedVersion: 2
    m_AdditiveReferencePoseClip: {fileID: 0}
    m_AdditiveReferencePoseTime: 0
    m_StartTime: 0
    m_StopTime: 0.13333334
    m_OrientationOffsetY: 0
    m_Level: 0
    m_CycleOffset: 0
    m_HasAdditiveReferencePose: 0
    m_LoopTime: 1
    m_LoopBlend: 0
    m_LoopBlendOrientation: 0
    m_LoopBlendPositionY: 0
    m_LoopBlendPositionXZ: 0
    m_KeepOriginalOrientation: 0
    m_KeepOriginalPositionY: 1
    m_KeepOriginalPositionXZ: 0
    m_HeightFromFeet: 0
    m_Mirror: 0
  m_EditorCurves: []
  m_EulerEditorCurves: []
  m_HasGenericRootTransform: 0
  m_HasMotionFloatCurves: 0
  m_Events: []
