%YAML 1.1
%TAG !u! tag:unity3d.com,2011:
--- !u!74 &7400000
AnimationClip:
  m_ObjectHideFlags: 0
  m_CorrespondingSourceObject: {fileID: 0}
  m_PrefabInstance: {fileID: 0}
  m_PrefabAsset: {fileID: 0}
  m_Name: Red_flag_lvl3_animation
  serializedVersion: 6
  m_Legacy: 0
  m_Compressed: 0
  m_UseHighQualityCurve: 1
  m_RotationCurves: []
  m_CompressedRotationCurves: []
  m_EulerCurves: []
  m_PositionCurves: []
  m_ScaleCurves: []
  m_FloatCurves: []
  m_PPtrCurves:
  - curve:
    - time: 0
      value: {fileID: 21300000, guid: f960d9313258510468fd854b88b9ba6a, type: 3}
    - time: 0.083333336
      value: {fileID: 21300000, guid: 610753612d9501c47b9bc4dcae8946f8, type: 3}
    - time: 0.16666667
      value: {fileID: 21300000, guid: a8cab3362f67bc045ac423592e74889c, type: 3}
    - time: 0.25
      value: {fileID: 21300000, guid: 8fbdba93760bed44984110f0bfb449c5, type: 3}
    - time: 0.33333334
      value: {fileID: 21300000, guid: 4ac738c2c6e974f478ffaf8711dfe10e, type: 3}
    - time: 0.41666666
      value: {fileID: 21300000, guid: 1846e9d5cbd372b41831b9283a0c30bf, type: 3}
    - time: 0.5
      value: {fileID: 21300000, guid: 9658ec1951660384fa4c9d34d19d75f5, type: 3}
    - time: 0.5833333
      value: {fileID: 21300000, guid: fe627c505958fa94a809a4239145dc82, type: 3}
    attribute: m_Sprite
    path: 
    classID: 212
    script: {fileID: 0}
  m_SampleRate: 12
  m_WrapMode: 0
  m_Bounds:
    m_Center: {x: 0, y: 0, z: 0}
    m_Extent: {x: 0, y: 0, z: 0}
  m_ClipBindingConstant:
    genericBindings: []
    pptrCurveMapping: []
  m_AnimationClipSettings:
    serializedVersion: 2
    m_AdditiveReferencePoseClip: {fileID: 0}
    m_AdditiveReferencePoseTime: 0
    m_StartTime: 0
    m_StopTime: 0.6666666
    m_OrientationOffsetY: 0
    m_Level: 0
    m_CycleOffset: 0
    m_HasAdditiveReferencePose: 0
    m_LoopTime: 1
    m_LoopBlend: 1
    m_LoopBlendOrientation: 0
    m_LoopBlendPositionY: 0
    m_LoopBlendPositionXZ: 0
    m_KeepOriginalOrientation: 0
    m_KeepOriginalPositionY: 1
    m_KeepOriginalPositionXZ: 0
    m_HeightFromFeet: 0
    m_Mirror: 0
  m_EditorCurves: []
  m_EulerEditorCurves: []
  m_HasGenericRootTransform: 0
  m_HasMotionFloatCurves: 0
  m_Events: []
