%YAML 1.1
%TAG !u! tag:unity3d.com,2011:
--- !u!74 &7400000
AnimationClip:
  m_ObjectHideFlags: 0
  m_CorrespondingSourceObject: {fileID: 0}
  m_PrefabInstance: {fileID: 0}
  m_PrefabAsset: {fileID: 0}
  m_Name: Red Castle level2
  serializedVersion: 6
  m_Legacy: 0
  m_Compressed: 0
  m_UseHighQualityCurve: 1
  m_RotationCurves: []
  m_CompressedRotationCurves: []
  m_EulerCurves: []
  m_PositionCurves: []
  m_ScaleCurves: []
  m_FloatCurves: []
  m_PPtrCurves:
  - curve:
    - time: 0
      value: {fileID: 21300000, guid: 6c8607c9b257c7743a095ee28b4a3d37, type: 3}
    - time: 0.083333336
      value: {fileID: 21300000, guid: ed1a05c4c5ee8bd4db89c04a0c2453cd, type: 3}
    - time: 0.16666667
      value: {fileID: 21300000, guid: 9faa2922516328a42aaef2fc9898f334, type: 3}
    - time: 0.25
      value: {fileID: 21300000, guid: 4f11090d590da1f478e1f72b4917ac7d, type: 3}
    - time: 0.33333334
      value: {fileID: 21300000, guid: 6f6be5f52cf75bf45994b06f0aae482a, type: 3}
    - time: 0.41666666
      value: {fileID: 21300000, guid: c37238721235e5348b67b0668f965709, type: 3}
    - time: 0.5
      value: {fileID: 21300000, guid: f8cf71fd822088c45919de5c005a5163, type: 3}
    - time: 0.5833333
      value: {fileID: 21300000, guid: 17134d252233f00459225e2239e40bde, type: 3}
    attribute: m_Sprite
    path: 
    classID: 212
    script: {fileID: 0}
  m_SampleRate: 12
  m_WrapMode: 0
  m_Bounds:
    m_Center: {x: 0, y: 0, z: 0}
    m_Extent: {x: 0, y: 0, z: 0}
  m_ClipBindingConstant:
    genericBindings:
    - serializedVersion: 2
      path: 0
      attribute: 0
      script: {fileID: 0}
      typeID: 212
      customType: 23
      isPPtrCurve: 1
    pptrCurveMapping:
    - {fileID: 21300000, guid: 6c8607c9b257c7743a095ee28b4a3d37, type: 3}
    - {fileID: 21300000, guid: ed1a05c4c5ee8bd4db89c04a0c2453cd, type: 3}
    - {fileID: 21300000, guid: 9faa2922516328a42aaef2fc9898f334, type: 3}
    - {fileID: 21300000, guid: 4f11090d590da1f478e1f72b4917ac7d, type: 3}
    - {fileID: 21300000, guid: 6f6be5f52cf75bf45994b06f0aae482a, type: 3}
    - {fileID: 21300000, guid: c37238721235e5348b67b0668f965709, type: 3}
    - {fileID: 21300000, guid: f8cf71fd822088c45919de5c005a5163, type: 3}
    - {fileID: 21300000, guid: 17134d252233f00459225e2239e40bde, type: 3}
  m_AnimationClipSettings:
    serializedVersion: 2
    m_AdditiveReferencePoseClip: {fileID: 0}
    m_AdditiveReferencePoseTime: 0
    m_StartTime: 0
    m_StopTime: 0.6666666
    m_OrientationOffsetY: 0
    m_Level: 0
    m_CycleOffset: 0
    m_HasAdditiveReferencePose: 0
    m_LoopTime: 1
    m_LoopBlend: 0
    m_LoopBlendOrientation: 0
    m_LoopBlendPositionY: 0
    m_LoopBlendPositionXZ: 0
    m_KeepOriginalOrientation: 0
    m_KeepOriginalPositionY: 1
    m_KeepOriginalPositionXZ: 0
    m_HeightFromFeet: 0
    m_Mirror: 0
  m_EditorCurves: []
  m_EulerEditorCurves: []
  m_HasGenericRootTransform: 0
  m_HasMotionFloatCurves: 0
  m_Events: []
