%YAML 1.1
%TAG !u! tag:unity3d.com,2011:
--- !u!74 &7400000
AnimationClip:
  m_ObjectHideFlags: 0
  m_CorrespondingSourceObject: {fileID: 0}
  m_PrefabInstance: {fileID: 0}
  m_PrefabAsset: {fileID: 0}
  m_Name: walk NE
  serializedVersion: 6
  m_Legacy: 0
  m_Compressed: 0
  m_UseHighQualityCurve: 1
  m_RotationCurves: []
  m_CompressedRotationCurves: []
  m_EulerCurves: []
  m_PositionCurves: []
  m_ScaleCurves: []
  m_FloatCurves: []
  m_PPtrCurves:
  - curve:
    - time: 0
      value: {fileID: 21300000, guid: a21bf26cc3bd9a54f9f96f6e12a92b3d, type: 3}
    - time: 0.083333336
      value: {fileID: 21300000, guid: 8f8cbbc7f6bb11b40bd90f57bc8c5899, type: 3}
    - time: 0.16666667
      value: {fileID: 21300000, guid: 159274bd419b70940b20c22bac840584, type: 3}
    - time: 0.25
      value: {fileID: 21300000, guid: aa0a18d299fc661409b6d1723a1b48e4, type: 3}
    - time: 0.33333334
      value: {fileID: 21300000, guid: df07b1611304bee43a8d083759975dc4, type: 3}
    - time: 0.41666666
      value: {fileID: 21300000, guid: 36051523ba0a79542ae434107b1dde87, type: 3}
    - time: 0.5
      value: {fileID: 21300000, guid: 98423e095350f9d4b8691c308a17be18, type: 3}
    - time: 0.5833333
      value: {fileID: 21300000, guid: 662bbf9f264aca24a92e197b7f7e175f, type: 3}
    - time: 0.6666667
      value: {fileID: 21300000, guid: b53bc3316b76afb46a174097c3cb223c, type: 3}
    - time: 0.75
      value: {fileID: 21300000, guid: b3d7d4e39587f4645a24988c4125390b, type: 3}
    attribute: m_Sprite
    path: 
    classID: 212
    script: {fileID: 0}
  m_SampleRate: 12
  m_WrapMode: 0
  m_Bounds:
    m_Center: {x: 0, y: 0, z: 0}
    m_Extent: {x: 0, y: 0, z: 0}
  m_ClipBindingConstant:
    genericBindings:
    - serializedVersion: 2
      path: 0
      attribute: 0
      script: {fileID: 0}
      typeID: 212
      customType: 23
      isPPtrCurve: 1
    pptrCurveMapping:
    - {fileID: 21300000, guid: a21bf26cc3bd9a54f9f96f6e12a92b3d, type: 3}
    - {fileID: 21300000, guid: 8f8cbbc7f6bb11b40bd90f57bc8c5899, type: 3}
    - {fileID: 21300000, guid: 159274bd419b70940b20c22bac840584, type: 3}
    - {fileID: 21300000, guid: aa0a18d299fc661409b6d1723a1b48e4, type: 3}
    - {fileID: 21300000, guid: df07b1611304bee43a8d083759975dc4, type: 3}
    - {fileID: 21300000, guid: 36051523ba0a79542ae434107b1dde87, type: 3}
    - {fileID: 21300000, guid: 98423e095350f9d4b8691c308a17be18, type: 3}
    - {fileID: 21300000, guid: 662bbf9f264aca24a92e197b7f7e175f, type: 3}
    - {fileID: 21300000, guid: b53bc3316b76afb46a174097c3cb223c, type: 3}
    - {fileID: 21300000, guid: b3d7d4e39587f4645a24988c4125390b, type: 3}
  m_AnimationClipSettings:
    serializedVersion: 2
    m_AdditiveReferencePoseClip: {fileID: 0}
    m_AdditiveReferencePoseTime: 0
    m_StartTime: 0
    m_StopTime: 0.8333333
    m_OrientationOffsetY: 0
    m_Level: 0
    m_CycleOffset: 0
    m_HasAdditiveReferencePose: 0
    m_LoopTime: 1
    m_LoopBlend: 0
    m_LoopBlendOrientation: 0
    m_LoopBlendPositionY: 0
    m_LoopBlendPositionXZ: 0
    m_KeepOriginalOrientation: 0
    m_KeepOriginalPositionY: 1
    m_KeepOriginalPositionXZ: 0
    m_HeightFromFeet: 0
    m_Mirror: 0
  m_EditorCurves: []
  m_EulerEditorCurves: []
  m_HasGenericRootTransform: 0
  m_HasMotionFloatCurves: 0
  m_Events: []
